﻿date,Intercept,holiday_nextday_holiday,holiday_nextday_weekend,holiday_flag,holiday_school,halloween,school,Attendance_Total,operating_hours,Price_EXP7,express7_avg_price,Price_EXP4,express4_avg_price,price_difference_EXP7_EXP4,Price_EXP3,express3_avg_price,price_difference_EXP4_EXP3,month_1,month_2,month_3,month_4,month_5,month_6,month_7,month_8,month_9,month_10,month_11,month_12,dow_Friday,dow_Monday,dow_Saturday,dow_Sunday,dow_Thursday,dow_Tuesday,dow_Wednesday,Attendance_AP,Attendance_AP_perc,school_perc,kansai_ap,kansai_non_ap,non_kansai,in_bound,kansai_ap_perc,kansai_non_ap_perc,non_kansai_perc,in_bound_perc
20200101,1,0,1,0,1,0,100,46000,12,10800,10800,7800,7800,3000,4800,4800,3000,1,0,0,0,0,0,0,0,0,0,0,0,0,0,0,0,0,0,1,12000,0.260869565,0.002173913,10800,6300,20000,8900,0.234782609,0.136956522,0.434782609,0.193478261
20200102,1,0,0,0,1,0,100,54000,13.5,10800,10800,7800,7800,3000,4800,4800,3000,1,0,0,0,0,0,0,0,0,0,0,0,0,0,0,0,1,0,0,11000,0.203703704,0.001851852,9900,9800,25200,9100,0.215217391,0.213043478,0.547826087,0.197826087
20200103,1,0,0,0,1,0,100,50000,13,10800,10800,7800,7800,3000,4800,4800,3000,1,0,0,0,0,0,0,0,0,0,0,0,1,0,0,0,0,0,0,11000,0.22,0.002,9900,9700,22500,7900,0.215217391,0.210869565,0.489130435,0.17173913
20200104,1,1,0,0,1,0,100,43000,13,10800,10800,7800,7800,3000,4800,4800,3000,1,0,0,0,0,0,0,0,0,0,0,0,0,0,1,0,0,0,0,13000,0.302325581,0.002325581,11700,10000,16600,4700,0.254347826,0.217391304,0.360869565,0.102173913
20200105,1,0,1,0,1,0,100,33000,13,10800,10800,7800,7800,3000,4800,4800,3000,1,0,0,0,0,0,0,0,0,0,0,0,0,0,0,1,0,0,0,13000,0.393939394,0.003030303,11700,8000,9000,4300,0.254347826,0.173913043,0.195652174,0.093478261
20200106,1,0,0,0,1,0,100,24000,11,10800,10800,7800,7800,3000,4800,4800,3000,1,0,0,0,0,0,0,0,0,0,0,0,0,1,0,0,0,0,0,6000,0.25,0.004166667,5400,1900,8200,8500,0.117391304,0.041304348,0.17826087,0.184782609
20200107,1,0,0,0,0,0,300,23000,11,10800,10800,7800,7800,3000,4800,4800,3000,1,0,0,0,0,0,0,0,0,0,0,0,0,0,0,0,0,1,0,5000,0.217391304,0.013043478,4500,2200,7500,8800,0.097826087,0.047826087,0.163043478,0.191304348
20200108,1,0,0,0,0,0,400,22000,11,10800,10800,7800,7800,3000,4800,4800,3000,1,0,0,0,0,0,0,0,0,0,0,0,0,0,0,0,0,0,1,5000,0.227272727,0.018181818,4500,2200,7600,7700,0.097826087,0.047826087,0.165217391,0.167391304
20200109,1,0,0,0,0,0,400,21000,11,10800,10800,7800,7800,3000,4800,4800,3000,1,0,0,0,0,0,0,0,0,0,0,0,0,0,0,0,1,0,0,4000,0.19047619,0.019047619,3600,1100,7100,9200,0.07826087,0.023913043,0.154347826,0.2
20200110,1,0,0,0,0,0,400,26000,11,10800,10800,7800,7800,3000,4800,4800,3000,1,0,0,0,0,0,0,0,0,0,0,0,1,0,0,0,0,0,0,5000,0.192307692,0.015384615,4500,4300,8200,9000,0.097826087,0.093478261,0.17826087,0.195652174
20200111,1,1,0,0,0,0,100,26000,11,10800,10800,7800,7800,3000,4800,4800,3000,1,0,0,0,0,0,0,0,0,0,0,0,0,0,1,0,0,0,0,9000,0.346153846,0.003846154,8100,3000,10400,4500,0.176086957,0.065217391,0.226086957,0.097826087
20200112,1,1,0,0,0,0,100,38000,12,10800,10800,7800,7800,3000,4800,4800,3000,1,0,0,0,0,0,0,0,0,0,0,0,0,0,0,1,0,0,0,13000,0.342105263,0.002631579,11700,5700,15400,5200,0.254347826,0.123913043,0.334782609,0.113043478
20200113,1,0,1,0,0,0,300,32000,12.5,10800,10800,7800,7800,3000,4800,4800,3000,1,0,0,0,0,0,0,0,0,0,0,0,0,1,0,0,0,0,0,10000,0.3125,0.009375,9000,3100,10200,9700,0.195652174,0.067391304,0.22173913,0.210869565
20200114,1,0,0,0,0,0,700,23000,10,10800,10800,7800,7800,3000,4800,4800,3000,1,0,0,0,0,0,0,0,0,0,0,0,0,0,0,0,0,1,0,4000,0.173913043,0.030434783,3600,3000,5900,10500,0.07826087,0.065217391,0.12826087,0.22826087
20200115,1,0,0,0,0,0,800,21000,10,10800,10800,7800,7800,3000,4800,4800,3000,1,0,0,0,0,0,0,0,0,0,0,0,0,0,0,0,0,0,1,4000,0.19047619,0.038095238,3600,1900,5800,9700,0.07826087,0.041304348,0.126086957,0.210869565
20200116,1,0,0,0,0,0,600,22000,10,10800,10800,7800,7800,3000,4800,4800,3000,1,0,0,0,0,0,0,0,0,0,0,0,0,0,0,0,1,0,0,4000,0.181818182,0.027272727,3600,1500,5900,11000,0.07826087,0.032608696,0.12826087,0.239130435
20200117,1,0,0,0,0,0,500,24000,10,10800,10800,7800,7800,3000,4800,4800,3000,1,0,0,0,0,0,0,0,0,0,0,0,1,0,0,0,0,0,0,5000,0.208333333,0.020833333,4500,1800,7300,10400,0.097826087,0.039130435,0.158695652,0.226086957
20200118,1,1,0,0,0,0,100,27000,10,10800,10800,7800,7800,3000,4800,4800,3000,1,0,0,0,0,0,0,0,0,0,0,0,0,0,1,0,0,0,0,9000,0.333333333,0.003703704,8100,3300,9600,6000,0.176086957,0.07173913,0.208695652,0.130434783
20200119,1,0,1,0,0,0,100,25000,10,10800,10800,7800,7800,3000,4800,4800,3000,1,0,0,0,0,0,0,0,0,0,0,0,0,0,0,1,0,0,0,10000,0.4,0.004,9000,3700,6700,5600,0.195652174,0.080434783,0.145652174,0.12173913
20200120,1,0,0,0,0,0,200,26000,10,10800,10800,7800,7800,3000,4800,4800,3000,1,0,0,0,0,0,0,0,0,0,0,0,0,1,0,0,0,0,0,5000,0.192307692,0.007692308,4500,1700,7700,12100,0.097826087,0.036956522,0.167391304,0.263043478
20200121,1,0,0,0,0,0,1600,27000,10,10800,10800,7800,7800,3000,4800,4800,3000,1,0,0,0,0,0,0,0,0,0,0,0,0,0,0,0,0,1,0,5000,0.185185185,0.059259259,4500,2100,7000,13400,0.097826087,0.045652174,0.152173913,0.291304348
20200122,1,0,0,0,0,0,800,27000,10,10800,10800,7800,7800,3000,4800,4800,3000,1,0,0,0,0,0,0,0,0,0,0,0,0,0,0,0,0,0,1,6000,0.222222222,0.02962963,5400,2200,6500,12900,0.117391304,0.047826087,0.141304348,0.280434783
20200123,1,0,0,0,0,0,1200,26000,10,10800,10800,7800,7800,3000,4800,4800,3000,1,0,0,0,0,0,0,0,0,0,0,0,0,0,0,0,1,0,0,5000,0.192307692,0.046153846,4500,2000,6000,13500,0.097826087,0.043478261,0.130434783,0.293478261
20200124,1,0,0,0,0,0,700,26000,10,10800,10800,7800,7800,3000,4800,4800,3000,1,0,0,0,0,0,0,0,0,0,0,0,1,0,0,0,0,0,0,5000,0.192307692,0.026923077,4500,1700,7300,12500,0.097826087,0.036956522,0.158695652,0.27173913
20200125,1,1,0,0,0,0,200,34000,10,10800,10800,7800,7800,3000,4800,4800,3000,1,0,0,0,0,0,0,0,0,0,0,0,0,0,1,0,0,0,0,14000,0.411764706,0.005882353,12600,3900,11000,6500,0.273913043,0.084782609,0.239130435,0.141304348
20200126,1,0,1,0,0,0,100,37000,10,10800,10800,7800,7800,3000,4800,4800,3000,1,0,0,0,0,0,0,0,0,0,0,0,0,0,0,1,0,0,0,18000,0.486486486,0.002702703,16200,4900,8000,7900,0.352173913,0.106521739,0.173913043,0.17173913
20200127,1,0,0,0,0,0,200,27000,10,10800,10800,7800,7800,3000,4800,4800,3000,1,0,0,0,0,0,0,0,0,0,0,0,0,1,0,0,0,0,0,5000,0.185185185,0.007407407,4500,2800,7500,12200,0.097826087,0.060869565,0.163043478,0.265217391
20200128,1,0,0,0,0,0,1000,29000,10,10800,10800,7800,7800,3000,4800,4800,3000,1,0,0,0,0,0,0,0,0,0,0,0,0,0,0,0,0,1,0,6000,0.206896552,0.034482759,5400,2600,7300,13700,0.117391304,0.056521739,0.158695652,0.297826087
20200129,1,0,0,0,0,0,800,29000,10,10800,10800,7800,7800,3000,4800,4800,3000,1,0,0,0,0,0,0,0,0,0,0,0,0,0,0,0,0,0,1,6000,0.206896552,0.027586207,5400,2400,7500,13700,0.117391304,0.052173913,0.163043478,0.297826087
20200130,1,0,0,0,0,0,1000,29000,10,10800,10800,7800,7800,3000,4800,4800,3000,1,0,0,0,0,0,0,0,0,0,0,0,0,0,0,0,1,0,0,6000,0.206896552,0.034482759,5400,2300,8100,13200,0.117391304,0.05,0.176086957,0.286956522
20200131,1,0,0,0,0,0,800,28000,10,10800,10800,7800,7800,3000,4800,4800,3000,1,0,0,0,0,0,0,0,0,0,0,0,1,0,0,0,0,0,0,5000,0.178571429,0.028571429,4500,1900,8900,12700,0.097826087,0.041304348,0.193478261,0.276086957
20200201,1,1,0,0,0,0,100,30000,10,10800,10800,7800,7800,3000,4800,4800,3000,0,1,0,0,0,0,0,0,0,0,0,0,0,0,1,0,0,0,0,13000,0.433333333,0.003333333,11700,2900,8000,7400,0.254347826,0.063043478,0.173913043,0.160869565
20200202,1,0,1,0,0,0,100,30000,10,10800,10800,7800,7800,3000,4800,4800,3000,0,1,0,0,0,0,0,0,0,0,0,0,0,0,0,1,0,0,0,14000,0.466666667,0.003333333,12600,2800,8400,6200,0.273913043,0.060869565,0.182608696,0.134782609
20200203,1,0,0,0,0,0,100,30000,10,10800,10800,7800,7800,3000,4800,4800,3000,0,1,0,0,0,0,0,0,0,0,0,0,0,1,0,0,0,0,0,7000,0.233333333,0.003333333,6300,2400,9000,12300,0.136956522,0.052173913,0.195652174,0.267391304
20200204,1,0,0,0,0,0,300,28000,10,10800,10800,7800,7800,3000,4800,4800,3000,0,1,0,0,0,0,0,0,0,0,0,0,0,0,0,0,0,1,0,7000,0.25,0.010714286,6300,2200,8800,10700,0.136956522,0.047826087,0.191304348,0.232608696
20200205,1,0,0,0,0,0,300,32000,10,10800,10800,7800,7800,3000,4800,4800,3000,0,1,0,0,0,0,0,0,0,0,0,0,0,0,0,0,0,0,1,9000,0.28125,0.009375,8100,3300,8800,11800,0.176086957,0.07173913,0.191304348,0.256521739
20200206,1,0,0,0,0,0,400,31000,10,10800,10800,7800,7800,3000,4800,4800,3000,0,1,0,0,0,0,0,0,0,0,0,0,0,0,0,0,1,0,0,9000,0.290322581,0.012903226,8100,2200,9800,10900,0.176086957,0.047826087,0.213043478,0.236956522
20200207,1,0,0,0,0,0,400,31000,10,10800,10800,7800,7800,3000,4800,4800,3000,0,1,0,0,0,0,0,0,0,0,0,0,1,0,0,0,0,0,0,8000,0.258064516,0.012903226,7200,2400,9000,12400,0.156521739,0.052173913,0.195652174,0.269565217
20200208,1,1,0,0,0,0,100,34000,11,10800,10800,7800,7800,3000,4800,4800,3000,0,1,0,0,0,0,0,0,0,0,0,0,0,0,1,0,0,0,0,12000,0.352941176,0.002941176,10800,2300,14600,6300,0.234782609,0.05,0.317391304,0.136956522
20200209,1,0,1,0,0,0,100,38000,11,10800,10800,7800,7800,3000,4800,4800,3000,0,1,0,0,0,0,0,0,0,0,0,0,0,0,0,1,0,0,0,15000,0.394736842,0.002631579,13500,3400,15000,6100,0.293478261,0.073913043,0.326086957,0.132608696
20200210,1,0,0,0,0,0,100,34000,11,10800,10800,7800,7800,3000,4800,4800,3000,0,1,0,0,0,0,0,0,0,0,0,0,0,1,0,0,0,0,0,8000,0.235294118,0.002941176,7200,3800,11100,11900,0.156521739,0.082608696,0.241304348,0.258695652
20200211,1,0,1,0,0,0,400,37000,11,10800,10800,7800,7800,3000,4800,4800,3000,0,1,0,0,0,0,0,0,0,0,0,0,0,0,0,0,0,1,0,12000,0.324324324,0.010810811,10800,2700,12000,11500,0.234782609,0.058695652,0.260869565,0.25
20200212,1,0,0,0,0,0,100,34000,11,10800,10800,7800,7800,3000,4800,4800,3000,0,1,0,0,0,0,0,0,0,0,0,0,0,0,0,0,0,0,1,11000,0.323529412,0.002941176,9900,2500,10100,11500,0.215217391,0.054347826,0.219565217,0.25
20200213,1,0,0,0,0,0,300,31000,10,10800,10800,7800,7800,3000,4800,4800,3000,0,1,0,0,0,0,0,0,0,0,0,0,0,0,0,0,1,0,0,8000,0.258064516,0.009677419,7200,2900,10000,10900,0.156521739,0.063043478,0.217391304,0.236956522
20200214,1,0,0,0,0,0,500,29000,10,10800,10800,7800,7800,3000,4800,4800,3000,0,1,0,0,0,0,0,0,0,0,0,0,1,0,0,0,0,0,0,7000,0.24137931,0.017241379,6300,2500,10200,10000,0.136956522,0.054347826,0.22173913,0.217391304
20200215,1,1,0,0,0,0,100,31000,10,10800,10800,7800,7800,3000,4800,4800,3000,0,1,0,0,0,0,0,0,0,0,0,0,0,0,1,0,0,0,0,11000,0.35483871,0.003225806,9900,3200,12300,5600,0.215217391,0.069565217,0.267391304,0.12173913
20200216,1,0,1,0,0,0,100,32000,10,10800,10800,7800,7800,3000,4800,4800,3000,0,1,0,0,0,0,0,0,0,0,0,0,0,0,0,1,0,0,0,14000,0.4375,0.003125,12600,3000,10500,5900,0.273913043,0.065217391,0.22826087,0.12826087
20200217,1,0,0,0,0,0,100,32000,11,10800,10800,7800,7800,3000,4800,4800,3000,0,1,0,0,0,0,0,0,0,0,0,0,0,1,0,0,0,0,0,8000,0.25,0.003125,7200,2600,11800,10400,0.156521739,0.056521739,0.256521739,0.226086957
20200218,1,0,0,0,0,0,400,28000,11,10800,10800,7800,7800,3000,4800,4800,3000,0,1,0,0,0,0,0,0,0,0,0,0,0,0,0,0,0,1,0,6000,0.214285714,0.014285714,5400,2500,11500,8600,0.117391304,0.054347826,0.25,0.186956522
20200219,1,0,0,0,0,0,300,31000,11,10800,10800,7800,7800,3000,4800,4800,3000,0,1,0,0,0,0,0,0,0,0,0,0,0,0,0,0,0,0,1,7000,0.225806452,0.009677419,6300,2600,12000,10100,0.136956522,0.056521739,0.260869565,0.219565217
20200220,1,0,0,0,0,0,600,31000,11,10800,10800,7800,7800,3000,4800,4800,3000,0,1,0,0,0,0,0,0,0,0,0,0,0,0,0,0,1,0,0,7000,0.225806452,0.019354839,6300,2800,11000,10900,0.136956522,0.060869565,0.239130435,0.236956522
20200221,1,0,0,0,0,0,900,31000,11,10800,10800,7800,7800,3000,4800,4800,3000,0,1,0,0,0,0,0,0,0,0,0,0,1,0,0,0,0,0,0,7000,0.225806452,0.029032258,6300,2800,11900,10000,0.136956522,0.060869565,0.258695652,0.217391304
20200222,1,1,0,0,0,0,100,43000,12,10800,10800,7800,7800,3000,4800,4800,3000,0,1,0,0,0,0,0,0,0,0,0,0,0,0,1,0,0,0,0,14000,0.325581395,0.002325581,12600,7600,17700,5100,0.273913043,0.165217391,0.384782609,0.110869565
20200223,1,1,0,0,0,0,100,45000,12,10800,10800,7800,7800,3000,4800,4800,3000,0,1,0,0,0,0,0,0,0,0,0,0,0,0,0,1,0,0,0,15000,0.333333333,0.002222222,13500,5400,20200,5900,0.293478261,0.117391304,0.439130435,0.12826087
20200224,1,0,1,0,0,0,200,38000,12,10800,10800,7800,7800,3000,4800,4800,3000,0,1,0,0,0,0,0,0,0,0,0,0,0,1,0,0,0,0,0,10000,0.263157895,0.005263158,9000,3900,12800,12300,0.195652174,0.084782609,0.27826087,0.267391304
20200225,1,0,0,0,0,0,600,31000,10,10800,10800,7800,7800,3000,4800,4800,3000,0,1,0,0,0,0,0,0,0,0,0,0,0,0,0,0,0,1,0,8000,0.258064516,0.019354839,7200,2600,11200,10000,0.156521739,0.056521739,0.243478261,0.217391304
20200226,1,0,0,0,0,0,300,28000,10,10800,10800,7800,7800,3000,4800,4800,3000,0,1,0,0,0,0,0,0,0,0,0,0,0,0,0,0,0,0,1,8000,0.285714286,0.010714286,7200,2500,10000,8300,0.156521739,0.054347826,0.217391304,0.180434783
20200227,1,0,0,0,0,0,700,25000,10,10800,10800,7800,7800,3000,4800,4800,3000,0,1,0,0,0,0,0,0,0,0,0,0,0,0,0,0,1,0,0,6000,0.24,0.028,5400,1900,10400,7300,0.117391304,0.041304348,0.226086957,0.158695652
20200228,1,0,0,0,0,0,1100,31000,10,10800,10800,7800,7800,3000,4800,4800,3000,0,1,0,0,0,0,0,0,0,0,0,0,1,0,0,0,0,0,0,8000,0.258064516,0.035483871,7200,4600,11000,8200,0.156521739,0.1,0.239130435,0.17826087
20200229,1,1,0,0,0,0,100,38000,11,10800,10800,7800,7800,3000,4800,4800,3000,0,1,0,0,0,0,0,0,0,0,0,0,0,0,1,0,0,0,0,15000,0.394736842,0.002631579,13500,4700,15300,4500,0.293478261,0.102173913,0.332608696,0.097826087
20200301,1,0,1,0,0,0,0,33000,11,10800,10800,7800,7800,3000,4800,4800,3000,0,0,1,0,0,0,0,0,0,0,0,0,0,0,0,1,0,0,0,14000,0.424242424,0,12600,4100,11800,4500,0.273913043,0.089130435,0.256521739,0.097826087
20200302,1,0,0,0,0,0,500,31000,11,10800,10800,7800,7800,3000,4800,4800,3000,0,0,1,0,0,0,0,0,0,0,0,0,0,1,0,0,0,0,0,7000,0.225806452,0.016129032,6300,2600,14200,7900,0.136956522,0.056521739,0.308695652,0.17173913
20200303,1,0,0,0,0,0,700,35000,11,10800,10800,7800,7800,3000,4800,4800,3000,0,0,1,0,0,0,0,0,0,0,0,0,0,0,0,0,0,1,0,8000,0.228571429,0.02,7200,2900,16600,8300,0.156521739,0.063043478,0.360869565,0.180434783
20200304,1,0,0,0,0,0,700,33000,11,10800,10800,7800,7800,3000,4800,4800,3000,0,0,1,0,0,0,0,0,0,0,0,0,0,0,0,0,0,0,1,8000,0.242424242,0.021212121,7200,3600,15300,6900,0.156521739,0.07826087,0.332608696,0.15
20200305,1,0,0,0,0,0,1900,35000,11,10800,10800,7800,7800,3000,4800,4800,3000,0,0,1,0,0,0,0,0,0,0,0,0,0,0,0,0,1,0,0,8000,0.228571429,0.054285714,7200,3500,17100,7200,0.156521739,0.076086957,0.37173913,0.156521739
20200306,1,0,0,0,0,0,1400,37000,11,10800,10800,7800,7800,3000,4800,4800,3000,0,0,1,0,0,0,0,0,0,0,0,0,1,0,0,0,0,0,0,10000,0.27027027,0.037837838,9000,4000,15600,8400,0.195652174,0.086956522,0.339130435,0.182608696
20200307,1,1,0,0,0,0,300,45000,11.5,10800,10800,7800,7800,3000,4800,4800,3000,0,0,1,0,0,0,0,0,0,0,0,0,0,0,1,0,0,0,0,16000,0.355555556,0.006666667,14400,6200,20700,3700,0.313043478,0.134782609,0.45,0.080434783
20200308,1,0,1,0,0,0,200,41000,11.5,10800,10800,7800,7800,3000,4800,4800,3000,0,0,1,0,0,0,0,0,0,0,0,0,0,0,0,1,0,0,0,18000,0.43902439,0.004878049,16200,6200,14700,3900,0.352173913,0.134782609,0.319565217,0.084782609
20200309,1,0,0,0,0,0,1000,41000,11.5,10800,10800,7800,7800,3000,4800,4800,3000,0,0,1,0,0,0,0,0,0,0,0,0,0,1,0,0,0,0,0,10000,0.243902439,0.024390244,9000,4300,20100,7600,0.195652174,0.093478261,0.436956522,0.165217391
20200310,1,0,0,0,0,0,1000,44000,11.5,10800,10800,7800,7800,3000,4800,4800,3000,0,0,1,0,0,0,0,0,0,0,0,0,0,0,0,0,0,1,0,12000,0.272727273,0.022727273,10800,5300,20800,7100,0.234782609,0.115217391,0.452173913,0.154347826
20200311,1,0,0,0,0,0,600,44000,11.5,10800,10800,7800,7800,3000,4800,4800,3000,0,0,1,0,0,0,0,0,0,0,0,0,0,0,0,0,0,0,1,13000,0.295454545,0.013636364,11700,5200,20200,6900,0.254347826,0.113043478,0.439130435,0.15
20200312,1,0,0,0,0,0,700,49000,11.5,10800,10800,7800,7800,3000,4800,4800,3000,0,0,1,0,0,0,0,0,0,0,0,0,0,0,0,0,1,0,0,16000,0.326530612,0.014285714,14400,7100,19100,8400,0.313043478,0.154347826,0.415217391,0.182608696
20200313,1,0,0,0,0,0,500,45000,11.5,10800,10800,7800,7800,3000,4800,4800,3000,0,0,1,0,0,0,0,0,0,0,0,0,1,0,0,0,0,0,0,14000,0.311111111,0.011111111,12600,6300,18800,7300,0.273913043,0.136956522,0.408695652,0.158695652
20200314,1,1,0,0,0,0,100,46000,13,10800,10800,7800,7800,3000,4800,4800,3000,0,0,1,0,0,0,0,0,0,0,0,0,0,0,1,0,0,0,0,16000,0.347826087,0.002173913,14400,5900,22300,3400,0.313043478,0.12826087,0.484782609,0.073913043
20200315,1,0,1,0,0,0,100,47000,13,10800,10800,7800,7800,3000,4800,4800,3000,0,0,1,0,0,0,0,0,0,0,0,0,0,0,0,1,0,0,0,13000,0.276595745,0.00212766,11700,8200,24000,3100,0.254347826,0.17826087,0.52173913,0.067391304
20200316,1,0,0,0,0,0,200,55000,13,10800,10800,7800,7800,3000,4800,4800,3000,0,0,1,0,0,0,0,0,0,0,0,0,0,1,0,0,0,0,0,19000,0.345454545,0.003636364,17100,8100,22000,7800,0.37173913,0.176086957,0.47826087,0.169565217
20200317,1,0,0,0,0,0,200,47000,13,10800,10800,7800,7800,3000,4800,4800,3000,0,0,1,0,0,0,0,0,0,0,0,0,0,0,0,0,0,1,0,13000,0.276595745,0.004255319,11700,6400,21500,7400,0.254347826,0.139130435,0.467391304,0.160869565
20200318,1,0,0,0,0,0,200,52000,13,10800,10800,7800,7800,3000,4800,4800,3000,0,0,1,0,0,0,0,0,0,0,0,0,0,0,0,0,0,0,1,17000,0.326923077,0.003846154,15300,8200,20700,7800,0.332608696,0.17826087,0.45,0.169565217
20200319,1,0,0,0,0,0,200,48000,13,10800,10800,7800,7800,3000,4800,4800,3000,0,0,1,0,0,0,0,0,0,0,0,0,0,0,0,0,1,0,0,15000,0.3125,0.004166667,13500,7100,18900,8500,0.293478261,0.154347826,0.410869565,0.184782609
20200320,1,1,0,1,0,0,100,50000,13,10800,10800,7800,7800,3000,4800,4800,3000,0,0,1,0,0,0,0,0,0,0,0,0,1,0,0,0,0,0,0,17000,0.34,0.002,15300,7200,19600,7900,0.332608696,0.156521739,0.426086957,0.17173913
20200321,1,1,0,1,0,0,100,43000,13.5,10800,10800,7800,7800,3000,4800,4800,3000,0,0,1,0,0,0,0,0,0,0,0,0,0,0,1,0,0,0,0,3000,0.069767442,0.002325581,2700,8900,27500,3900,0.058695652,0.193478261,0.597826087,0.084782609
20200322,1,0,1,1,0,0,100,46000,13.5,10800,10800,7800,7800,3000,4800,4800,3000,0,0,1,0,0,0,0,0,0,0,0,0,0,0,0,1,0,0,0,13000,0.282608696,0.002173913,11700,6900,23900,3500,0.254347826,0.15,0.519565217,0.076086957
20200323,1,0,0,1,0,0,100,56000,13.5,10800,10800,7800,7800,3000,4800,4800,3000,0,0,1,0,0,0,0,0,0,0,0,0,0,1,0,0,0,0,0,15000,0.267857143,0.001785714,13500,7600,25200,9700,0.293478261,0.165217391,0.547826087,0.210869565
20200324,1,0,0,1,1,0,200,55000,13.5,10800,10800,7800,7800,3000,4800,4800,3000,0,0,1,0,0,0,0,0,0,0,0,0,0,0,0,0,0,1,0,16000,0.290909091,0.003636364,14400,8600,24400,7600,0.313043478,0.186956522,0.530434783,0.165217391
20200325,1,0,0,1,1,0,200,42000,13.5,10800,10800,7800,7800,3000,4800,4800,3000,0,0,1,0,0,0,0,0,0,0,0,0,0,0,0,0,0,0,1,3000,0.071428571,0.004761905,2700,9700,22400,7200,0.058695652,0.210869565,0.486956522,0.156521739
20200326,1,0,0,1,1,0,200,43000,13.5,10800,10800,7800,7800,3000,4800,4800,3000,0,0,1,0,0,0,0,0,0,0,0,0,0,0,0,0,1,0,0,4000,0.093023256,0.004651163,3600,8400,21500,9500,0.07826087,0.182608696,0.467391304,0.206521739
20200327,1,0,0,1,1,0,100,40000,13.5,10800,10800,7800,7800,3000,4800,4800,3000,0,0,1,0,0,0,0,0,0,0,0,0,1,0,0,0,0,0,0,4000,0.1,0.0025,3600,7800,21000,7600,0.07826087,0.169565217,0.456521739,0.165217391
20200328,1,1,0,1,1,0,100,37000,13.5,10800,10800,7800,7800,3000,4800,4800,3000,0,0,1,0,0,0,0,0,0,0,0,0,0,0,1,0,0,0,0,3000,0.081081081,0.002702703,2700,8200,22300,3800,0.058695652,0.17826087,0.484782609,0.082608696
20200329,1,0,1,1,1,0,100,35000,13.5,10800,10800,7800,7800,3000,4800,4800,3000,0,0,1,0,0,0,0,0,0,0,0,0,0,0,0,1,0,0,0,4000,0.114285714,0.002857143,3600,8200,18400,4800,0.07826087,0.17826087,0.4,0.104347826
20200330,1,0,0,1,1,0,100,40000,13.5,10800,10800,7800,7800,3000,4800,4800,3000,0,0,1,0,0,0,0,0,0,0,0,0,0,1,0,0,0,0,0,4000,0.1,0.0025,3600,8400,20300,7700,0.07826087,0.182608696,0.441304348,0.167391304
20200331,1,0,0,1,1,0,100,39000,13.5,10800,10800,7800,7800,3000,4800,4800,3000,0,0,1,0,0,0,0,0,0,0,0,0,0,0,0,0,0,1,0,4000,0.102564103,0.002564103,3600,7900,18800,8700,0.07826087,0.17173913,0.408695652,0.189130435
20200401,1,0,0,0,1,0,400,45000,12.5,10800,10800,7800,7800,3000,4800,4800,3000,0,0,0,1,0,0,0,0,0,0,0,0,0,0,0,0,0,0,1,13000,0.288888889,0.008888889,11700,8800,16200,8300,0.254347826,0.191304348,0.352173913,0.180434783
20200402,1,0,0,0,1,0,300,41000,12.5,10800,10800,7800,7800,3000,4800,4800,3000,0,0,0,1,0,0,0,0,0,0,0,0,0,0,0,0,1,0,0,12000,0.292682927,0.007317073,10800,7200,14000,9000,0.234782609,0.156521739,0.304347826,0.195652174
20200403,1,0,0,0,1,0,100,38000,11.5,10800,10800,7800,7800,3000,4800,4800,3000,0,0,0,1,0,0,0,0,0,0,0,0,1,0,0,0,0,0,0,11000,0.289473684,0.002631579,9900,7000,12100,9000,0.215217391,0.152173913,0.263043478,0.195652174
20200404,1,1,0,0,1,0,100,37000,11.5,10800,10800,7800,7800,3000,4800,4800,3000,0,0,0,1,0,0,0,0,0,0,0,0,0,0,1,0,0,0,0,12000,0.324324324,0.002702703,10800,6500,15100,4600,0.234782609,0.141304348,0.32826087,0.1
20200405,1,0,1,0,1,0,100,36000,11.5,10800,10800,7800,7800,3000,4800,4800,3000,0,0,0,1,0,0,0,0,0,0,0,0,0,0,0,1,0,0,0,13000,0.361111111,0.002777778,11700,6600,12400,5300,0.254347826,0.143478261,0.269565217,0.115217391
20200406,1,0,0,0,1,0,400,31000,11.5,10800,10800,7800,7800,3000,4800,4800,3000,0,0,0,1,0,0,0,0,0,0,0,0,0,1,0,0,0,0,0,7000,0.225806452,0.012903226,6300,4700,8600,11400,0.136956522,0.102173913,0.186956522,0.247826087
20200407,1,0,0,0,0,0,600,27000,11.5,10800,10800,7800,7800,3000,4800,4800,3000,0,0,0,1,0,0,0,0,0,0,0,0,0,0,0,0,0,1,0,6000,0.222222222,0.022222222,5400,4000,7200,10400,0.117391304,0.086956522,0.156521739,0.226086957
20200408,1,0,0,0,0,0,1400,25000,11,10800,10800,7800,7800,3000,4800,4800,3000,0,0,0,1,0,0,0,0,0,0,0,0,0,0,0,0,0,0,1,5000,0.2,0.056,4500,3400,7900,9200,0.097826087,0.073913043,0.17173913,0.2
20200409,1,0,0,0,0,0,1500,29000,11,10800,10800,7800,7800,3000,4800,4800,3000,0,0,0,1,0,0,0,0,0,0,0,0,0,0,0,0,1,0,0,5000,0.172413793,0.051724138,4500,3700,7500,13300,0.097826087,0.080434783,0.163043478,0.289130435
20200410,1,0,0,0,0,0,1700,26000,11,10800,10800,7800,7800,3000,4800,4800,3000,0,0,0,1,0,0,0,0,0,0,0,0,1,0,0,0,0,0,0,4000,0.153846154,0.065384615,3600,3900,8200,10300,0.07826087,0.084782609,0.17826087,0.223913043
20200411,1,1,0,0,0,0,400,39000,11,10800,10800,7800,7800,3000,4800,4800,3000,0,0,0,1,0,0,0,0,0,0,0,0,0,0,1,0,0,0,0,13000,0.333333333,0.01025641,11700,6600,15300,5400,0.254347826,0.143478261,0.332608696,0.117391304
20200412,1,0,1,0,0,0,200,33000,11,10800,10800,7800,7800,3000,4800,4800,3000,0,0,0,1,0,0,0,0,0,0,0,0,0,0,0,1,0,0,0,13000,0.393939394,0.006060606,11700,6100,10400,4800,0.254347826,0.132608696,0.226086957,0.104347826
20200413,1,0,0,0,0,0,1300,27000,11,10800,10800,7800,7800,3000,4800,4800,3000,0,0,0,1,0,0,0,0,0,0,0,0,0,1,0,0,0,0,0,4000,0.148148148,0.048148148,3600,3500,8500,11400,0.07826087,0.076086957,0.184782609,0.247826087
20200414,1,0,0,0,0,0,1000,26000,11,10800,10800,7800,7800,3000,4800,4800,3000,0,0,0,1,0,0,0,0,0,0,0,0,0,0,0,0,0,1,0,5000,0.192307692,0.038461538,4500,3700,7900,9900,0.097826087,0.080434783,0.17173913,0.215217391
20200415,1,0,0,0,0,0,1900,29000,11,10800,10800,7800,7800,3000,4800,4800,3000,0,0,0,1,0,0,0,0,0,0,0,0,0,0,0,0,0,0,1,6000,0.206896552,0.065517241,5400,4400,8200,11000,0.117391304,0.095652174,0.17826087,0.239130435
20200416,1,0,0,0,0,0,2800,30000,11,10800,10800,7800,7800,3000,4800,4800,3000,0,0,0,1,0,0,0,0,0,0,0,0,0,0,0,0,1,0,0,6000,0.2,0.093333333,5400,3800,8900,11900,0.117391304,0.082608696,0.193478261,0.258695652
20200417,1,0,0,0,0,0,6000,33000,11,10800,10800,7800,7800,3000,4800,4800,3000,0,0,0,1,0,0,0,0,0,0,0,0,1,0,0,0,0,0,0,6000,0.181818182,0.181818182,5400,5600,10400,11600,0.117391304,0.12173913,0.226086957,0.252173913
20200418,1,1,0,0,0,0,600,42000,11,10800,10800,7800,7800,3000,4800,4800,3000,0,0,0,1,0,0,0,0,0,0,0,0,0,0,1,0,0,0,0,16000,0.380952381,0.014285714,14400,5100,17300,5200,0.313043478,0.110869565,0.376086957,0.113043478
20200419,1,0,1,0,0,0,600,40000,11,10800,10800,7800,7800,3000,4800,4800,3000,0,0,0,1,0,0,0,0,0,0,0,0,0,0,0,1,0,0,0,18000,0.45,0.015,16200,6500,12700,4600,0.352173913,0.141304348,0.276086957,0.1
20200420,1,0,0,0,0,0,2000,33000,11,10800,10800,7800,7800,3000,4800,4800,3000,0,0,0,1,0,0,0,0,0,0,0,0,0,1,0,0,0,0,0,7000,0.212121212,0.060606061,6300,4900,10800,11000,0.136956522,0.106521739,0.234782609,0.239130435
20200421,1,0,0,0,0,0,2600,28000,11,10800,10800,7800,7800,3000,4800,4800,3000,0,0,0,1,0,0,0,0,0,0,0,0,0,0,0,0,0,1,0,6000,0.214285714,0.092857143,5400,3900,9200,9500,0.117391304,0.084782609,0.2,0.206521739
20200422,1,0,0,0,0,0,4200,27000,11,10800,10800,7800,7800,3000,4800,4800,3000,0,0,0,1,0,0,0,0,0,0,0,0,0,0,0,0,0,0,1,6000,0.222222222,0.155555556,5400,4000,10100,7500,0.117391304,0.086956522,0.219565217,0.163043478
20200423,1,0,0,0,0,0,5900,29000,11,10800,10800,7800,7800,3000,4800,4800,3000,0,0,0,1,0,0,0,0,0,0,0,0,0,0,0,0,1,0,0,6000,0.206896552,0.203448276,5400,4900,9600,9100,0.117391304,0.106521739,0.208695652,0.197826087
20200424,1,0,0,0,0,0,5800,34000,11,10800,10800,7800,7800,3000,4800,4800,3000,0,0,0,1,0,0,0,0,0,0,0,0,1,0,0,0,0,0,0,8000,0.235294118,0.170588235,7200,6600,10900,9300,0.156521739,0.143478261,0.236956522,0.202173913
20200425,1,1,0,0,0,0,900,44000,12,10800,10800,7800,7800,3000,4800,4800,3000,0,0,0,1,0,0,0,0,0,0,0,0,0,0,1,0,0,0,0,16000,0.363636364,0.020454545,14400,5500,19100,5000,0.313043478,0.119565217,0.415217391,0.108695652
20200426,1,0,1,0,1,0,400,48000,12,10800,10800,7800,7800,3000,4800,4800,3000,0,0,0,1,0,0,0,0,0,0,0,0,0,0,0,1,0,0,0,17000,0.354166667,0.008333333,15300,7200,20200,5300,0.332608696,0.156521739,0.439130435,0.115217391
20200427,1,0,0,0,1,0,700,41000,12,10800,10800,7800,7800,3000,4800,4800,3000,0,0,0,1,0,0,0,0,0,0,0,0,0,1,0,0,0,0,0,11000,0.268292683,0.017073171,9900,5700,15900,9500,0.215217391,0.123913043,0.345652174,0.206521739
20200428,1,0,0,0,1,0,1300,39000,12,10800,10800,7800,7800,3000,4800,4800,3000,0,0,0,1,0,0,0,0,0,0,0,0,0,0,0,0,0,1,0,11000,0.282051282,0.033333333,9900,5400,14900,8800,0.215217391,0.117391304,0.323913043,0.191304348
20200429,1,0,1,0,1,0,400,47000,12,10800,10800,7800,7800,3000,4800,4800,3000,0,0,0,1,0,0,0,0,0,0,0,0,0,0,0,0,0,0,1,16000,0.340425532,0.008510638,14400,5800,19700,7100,0.313043478,0.126086957,0.42826087,0.154347826
20200430,1,0,0,0,1,0,400,43000,12,10800,10800,7800,7800,3000,4800,4800,3000,0,0,0,1,0,0,0,0,0,0,0,0,0,0,0,0,1,0,0,12000,0.279069767,0.009302326,10800,7000,16900,8300,0.234782609,0.152173913,0.367391304,0.180434783
20200501,1,0,0,0,1,0,300,39000,12,10800,10800,7800,7800,3000,4800,4800,3000,0,0,0,0,1,0,0,0,0,0,0,0,1,0,0,0,0,0,0,13000,0.333333333,0.007692308,11700,5300,13300,8700,0.254347826,0.115217391,0.289130435,0.189130435
20200502,1,1,0,1,1,0,100,34000,13.5,10800,10800,7800,7800,3000,4800,4800,3000,0,0,0,0,1,0,0,0,0,0,0,0,0,0,1,0,0,0,0,4000,0.117647059,0.002941176,3600,4400,20400,5600,0.07826087,0.095652174,0.443478261,0.12173913
20200503,1,1,0,1,1,0,100,39000,13.5,10800,10800,7800,7800,3000,4800,4800,3000,0,0,0,0,1,0,0,0,0,0,0,0,0,0,0,1,0,0,0,5000,0.128205128,0.002564103,4500,5000,24400,5100,0.097826087,0.108695652,0.530434783,0.110869565
20200504,1,1,0,1,1,0,400,36000,13.5,10800,10800,7800,7800,3000,4800,4800,3000,0,0,0,0,1,0,0,0,0,0,0,0,0,1,0,0,0,0,0,5000,0.138888889,0.011111111,4500,5000,19500,7000,0.097826087,0.108695652,0.423913043,0.152173913
20200505,1,1,0,1,1,0,1400,40000,11.5,10800,10800,7800,7800,3000,4800,4800,3000,0,0,0,0,1,0,0,0,0,0,0,0,0,0,0,0,0,1,0,13000,0.325,0.035,11700,5700,16400,6200,0.254347826,0.123913043,0.356521739,0.134782609
20200506,1,0,1,0,0,0,3000,39000,11.5,10800,10800,7800,7800,3000,4800,4800,3000,0,0,0,0,1,0,0,0,0,0,0,0,0,0,0,0,0,0,1,14000,0.358974359,0.076923077,12600,5900,13300,7200,0.273913043,0.12826087,0.289130435,0.156521739
20200507,1,0,0,0,0,0,3600,27000,11,10800,10800,7800,7800,3000,4800,4800,3000,0,0,0,0,1,0,0,0,0,0,0,0,0,0,0,0,1,0,0,7000,0.259259259,0.133333333,6300,2600,7600,10500,0.136956522,0.056521739,0.165217391,0.22826087
20200508,1,0,0,0,0,0,5900,30000,11,10800,10800,7800,7800,3000,4800,4800,3000,0,0,0,0,1,0,0,0,0,0,0,0,1,0,0,0,0,0,0,7000,0.233333333,0.196666667,6300,4700,9200,9800,0.136956522,0.102173913,0.2,0.213043478
20200509,1,1,0,0,0,0,1300,34000,11,10800,10800,7800,7800,3000,4800,4800,3000,0,0,0,0,1,0,0,0,0,0,0,0,0,0,1,0,0,0,0,13000,0.382352941,0.038235294,11700,6800,10900,4600,0.254347826,0.147826087,0.236956522,0.1
20200510,1,0,1,0,0,0,800,28000,11,10800,10800,7800,7800,3000,4800,4800,3000,0,0,0,0,1,0,0,0,0,0,0,0,0,0,0,1,0,0,0,13000,0.464285714,0.028571429,11700,5200,7400,3700,0.254347826,0.113043478,0.160869565,0.080434783
20200511,1,0,0,0,0,0,1800,30000,11,10800,10800,7800,7800,3000,4800,4800,3000,0,0,0,0,1,0,0,0,0,0,0,0,0,1,0,0,0,0,0,9000,0.3,0.06,8100,4100,6000,11800,0.176086957,0.089130435,0.130434783,0.256521739
20200512,1,0,0,0,0,0,1800,24000,11,10800,10800,7800,7800,3000,4800,4800,3000,0,0,0,0,1,0,0,0,0,0,0,0,0,0,0,0,0,1,0,6000,0.25,0.075,5400,2200,6700,9700,0.117391304,0.047826087,0.145652174,0.210869565
20200513,1,0,0,0,0,0,3300,30000,11,10800,10800,7800,7800,3000,4800,4800,3000,0,0,0,0,1,0,0,0,0,0,0,0,0,0,0,0,0,0,1,9000,0.3,0.11,8100,4100,7400,10400,0.176086957,0.089130435,0.160869565,0.226086957
20200514,1,0,0,0,0,0,4000,30000,11,10800,10800,7800,7800,3000,4800,4800,3000,0,0,0,0,1,0,0,0,0,0,0,0,0,0,0,0,1,0,0,8000,0.266666667,0.133333333,7200,3800,7000,12000,0.156521739,0.082608696,0.152173913,0.260869565
20200515,1,0,0,0,0,0,3500,31000,11,10800,10800,7800,7800,3000,4800,4800,3000,0,0,0,0,1,0,0,0,0,0,0,0,1,0,0,0,0,0,0,8000,0.258064516,0.112903226,7200,3100,10000,10700,0.156521739,0.067391304,0.217391304,0.232608696
20200516,1,1,0,0,0,0,600,35000,11.5,10800,10800,7800,7800,3000,4800,4800,3000,0,0,0,0,1,0,0,0,0,0,0,0,0,0,1,0,0,0,0,15000,0.428571429,0.017142857,13500,5300,11300,4900,0.293478261,0.115217391,0.245652174,0.106521739
20200517,1,0,1,0,0,0,200,33000,11.5,10800,10800,7800,7800,3000,4800,4800,3000,0,0,0,0,1,0,0,0,0,0,0,0,0,0,0,1,0,0,0,16000,0.484848485,0.006060606,14400,5000,8400,5200,0.313043478,0.108695652,0.182608696,0.113043478
20200518,1,0,0,0,0,0,900,31000,11.5,10800,10800,7800,7800,3000,4800,4800,3000,0,0,0,0,1,0,0,0,0,0,0,0,0,1,0,0,0,0,0,9000,0.290322581,0.029032258,8100,4200,7100,11600,0.176086957,0.091304348,0.154347826,0.252173913
20200519,1,0,0,0,0,0,1500,27000,11.5,10800,10800,7800,7800,3000,4800,4800,3000,0,0,0,0,1,0,0,0,0,0,0,0,0,0,0,0,0,1,0,8000,0.296296296,0.055555556,7200,3400,5700,10700,0.156521739,0.073913043,0.123913043,0.232608696
20200520,1,0,0,0,0,0,3000,27000,11.5,10800,10800,7800,7800,3000,4800,4800,3000,0,0,0,0,1,0,0,0,0,0,0,0,0,0,0,0,0,0,1,8000,0.296296296,0.111111111,7200,4200,6200,9400,0.156521739,0.091304348,0.134782609,0.204347826
20200521,1,0,0,0,0,0,4600,35000,11.5,10800,10800,7800,7800,3000,4800,4800,3000,0,0,0,0,1,0,0,0,0,0,0,0,0,0,0,0,1,0,0,9000,0.257142857,0.131428571,8100,2800,11300,12800,0.176086957,0.060869565,0.245652174,0.27826087
20200522,1,0,0,0,0,0,6000,42000,11.5,10800,10800,7800,7800,3000,4800,4800,3000,0,0,0,0,1,0,0,0,0,0,0,0,1,0,0,0,0,0,0,11000,0.261904762,0.142857143,9900,4300,15600,12200,0.215217391,0.093478261,0.339130435,0.265217391
20200523,1,1,0,0,0,0,1300,50000,11.5,10800,10800,7800,7800,3000,4800,4800,3000,0,0,0,0,1,0,0,0,0,0,0,0,0,0,1,0,0,0,0,21000,0.42,0.026,18900,7300,18600,5200,0.410869565,0.158695652,0.404347826,0.113043478
20200524,1,0,1,0,0,0,700,44000,11.5,10800,10800,7800,7800,3000,4800,4800,3000,0,0,0,0,1,0,0,0,0,0,0,0,0,0,0,1,0,0,0,23000,0.522727273,0.015909091,20700,5900,12300,5100,0.45,0.12826087,0.267391304,0.110869565
20200525,1,0,0,0,0,0,1000,44000,11.5,10800,10800,7800,7800,3000,4800,4800,3000,0,0,0,0,1,0,0,0,0,0,0,0,0,1,0,0,0,0,0,14000,0.318181818,0.022727273,12600,7300,11800,12300,0.273913043,0.158695652,0.256521739,0.267391304
20200526,1,0,0,0,0,0,1700,28000,11.5,10800,10800,7800,7800,3000,4800,4800,3000,0,0,0,0,1,0,0,0,0,0,0,0,0,0,0,0,0,1,0,8000,0.285714286,0.060714286,7200,3700,7400,9700,0.156521739,0.080434783,0.160869565,0.210869565
20200527,1,0,0,0,0,0,1900,30000,11.5,10800,10800,7800,7800,3000,4800,4800,3000,0,0,0,0,1,0,0,0,0,0,0,0,0,0,0,0,0,0,1,9000,0.3,0.063333333,8100,3700,7900,10300,0.176086957,0.080434783,0.17173913,0.223913043
20200528,1,0,0,0,0,0,2600,31000,11.5,10800,10800,7800,7800,3000,4800,4800,3000,0,0,0,0,1,0,0,0,0,0,0,0,0,0,0,0,1,0,0,8000,0.258064516,0.083870968,7200,3900,8100,11800,0.156521739,0.084782609,0.176086957,0.256521739
20200529,1,0,0,0,0,0,3000,37000,11.5,10800,10800,7800,7800,3000,4800,4800,3000,0,0,0,0,1,0,0,0,0,0,0,0,1,0,0,0,0,0,0,9000,0.243243243,0.081081081,8100,3600,14900,10400,0.176086957,0.07826087,0.323913043,0.226086957
20200530,1,1,0,0,0,0,400,48000,11.5,10800,10800,7800,7800,3000,4800,4800,3000,0,0,0,0,1,0,0,0,0,0,0,0,0,0,1,0,0,0,0,20000,0.416666667,0.008333333,18000,6000,19000,5000,0.391304348,0.130434783,0.413043478,0.108695652
20200531,1,0,1,0,0,0,300,43000,11.5,10800,10800,7800,7800,3000,4800,4800,3000,0,0,0,0,1,0,0,0,0,0,0,0,0,0,0,1,0,0,0,23000,0.534883721,0.006976744,20700,5500,11400,5400,0.45,0.119565217,0.247826087,0.117391304
20200601,1,0,0,0,0,0,400,44000,11.5,10800,10800,7800,7800,3000,4800,4800,3000,0,0,0,0,0,1,0,0,0,0,0,0,0,1,0,0,0,0,0,17000,0.386363636,0.009090909,15300,6800,9700,12200,0.332608696,0.147826087,0.210869565,0.265217391
20200602,1,0,0,0,0,0,1100,28000,11.5,10800,10800,7800,7800,3000,4800,4800,3000,0,0,0,0,0,1,0,0,0,0,0,0,0,0,0,0,0,1,0,7000,0.25,0.039285714,6300,4300,7300,10100,0.136956522,0.093478261,0.158695652,0.219565217
20200603,1,0,0,0,0,0,1100,25000,11.5,10800,10800,7800,7800,3000,4800,4800,3000,0,0,0,0,0,1,0,0,0,0,0,0,0,0,0,0,0,0,1,7000,0.28,0.044,6300,3200,6300,9200,0.136956522,0.069565217,0.136956522,0.2
20200604,1,0,0,0,0,0,2200,31000,11.5,10800,10800,7800,7800,3000,4800,4800,3000,0,0,0,0,0,1,0,0,0,0,0,0,0,0,0,0,1,0,0,8000,0.258064516,0.070967742,7200,4300,7600,11900,0.156521739,0.093478261,0.165217391,0.258695652
20200605,1,0,0,0,0,0,2800,31000,11.5,10800,10800,7800,7800,3000,4800,4800,3000,0,0,0,0,0,1,0,0,0,0,0,0,1,0,0,0,0,0,0,7000,0.225806452,0.090322581,6300,4900,11100,8700,0.136956522,0.106521739,0.241304348,0.189130435
20200606,1,1,0,0,0,0,400,49000,11.5,10800,10800,7800,7800,3000,4800,4800,3000,0,0,0,0,0,1,0,0,0,0,0,0,0,0,1,0,0,0,0,21000,0.428571429,0.008163265,18900,7300,17500,5300,0.410869565,0.158695652,0.380434783,0.115217391
20200607,1,0,1,0,0,0,200,41000,11.5,10800,10800,7800,7800,3000,4800,4800,3000,0,0,0,0,0,1,0,0,0,0,0,0,0,0,0,1,0,0,0,21000,0.512195122,0.004878049,18900,6300,10900,4900,0.410869565,0.136956522,0.236956522,0.106521739
20200608,1,0,0,0,0,0,500,37000,11.5,10800,10800,7800,7800,3000,4800,4800,3000,0,0,0,0,0,1,0,0,0,0,0,0,0,1,0,0,0,0,0,12000,0.324324324,0.013513514,10800,6600,9000,10600,0.234782609,0.143478261,0.195652174,0.230434783
20200609,1,0,0,0,0,0,1100,27000,11.5,10800,10800,7800,7800,3000,4800,4800,3000,0,0,0,0,0,1,0,0,0,0,0,0,0,0,0,0,0,1,0,7000,0.259259259,0.040740741,6300,4200,6800,9700,0.136956522,0.091304348,0.147826087,0.210869565
20200610,1,0,0,0,0,0,800,30000,11.5,10800,10800,7800,7800,3000,4800,4800,3000,0,0,0,0,0,1,0,0,0,0,0,0,0,0,0,0,0,0,1,8000,0.266666667,0.026666667,7200,4900,7400,10500,0.156521739,0.106521739,0.160869565,0.22826087
20200611,1,0,0,0,0,0,1100,29000,11.5,10800,10800,7800,7800,3000,4800,4800,3000,0,0,0,0,0,1,0,0,0,0,0,0,0,0,0,0,1,0,0,8000,0.275862069,0.037931034,7200,3500,7100,11200,0.156521739,0.076086957,0.154347826,0.243478261
20200612,1,0,0,0,0,0,1100,33000,11.5,10800,10800,7800,7800,3000,4800,4800,3000,0,0,0,0,0,1,0,0,0,0,0,0,1,0,0,0,0,0,0,10000,0.303030303,0.033333333,9000,3400,11800,8800,0.195652174,0.073913043,0.256521739,0.191304348
20200613,1,1,0,0,0,0,200,47000,10,10800,10800,7800,7800,3000,4800,4800,3000,0,0,0,0,0,1,0,0,0,0,0,0,0,0,1,0,0,0,0,20000,0.425531915,0.004255319,18000,6700,16800,5500,0.391304348,0.145652174,0.365217391,0.119565217
20200614,1,0,1,0,0,0,100,46000,11.5,10800,10800,7800,7800,3000,4800,4800,3000,0,0,0,0,0,1,0,0,0,0,0,0,0,0,0,1,0,0,0,23000,0.5,0.002173913,20700,7100,13600,4600,0.45,0.154347826,0.295652174,0.1
20200615,1,0,0,0,0,0,300,35000,11.5,10800,10800,7800,7800,3000,4800,4800,3000,0,0,0,0,0,1,0,0,0,0,0,0,0,1,0,0,0,0,0,11000,0.314285714,0.008571429,9900,6100,10000,9000,0.215217391,0.132608696,0.217391304,0.195652174
20200616,1,0,0,0,0,0,600,28000,11.5,10800,10800,7800,7800,3000,4800,4800,3000,0,0,0,0,0,1,0,0,0,0,0,0,0,0,0,0,0,1,0,7000,0.25,0.021428571,6300,3600,7400,10700,0.136956522,0.07826087,0.160869565,0.232608696
20200617,1,0,0,0,0,0,500,25000,11.5,10800,10800,7800,7800,3000,4800,4800,3000,0,0,0,0,0,1,0,0,0,0,0,0,0,0,0,0,0,0,1,7000,0.28,0.02,6300,3900,6900,7900,0.136956522,0.084782609,0.15,0.17173913
20200618,1,0,0,0,0,0,1000,30000,11.5,10800,10800,7800,7800,3000,4800,4800,3000,0,0,0,0,0,1,0,0,0,0,0,0,0,0,0,0,1,0,0,8000,0.266666667,0.033333333,7200,3800,6600,12400,0.156521739,0.082608696,0.143478261,0.269565217
20200619,1,0,0,0,0,0,1100,32000,10,10800,10800,7800,7800,3000,4800,4800,3000,0,0,0,0,0,1,0,0,0,0,0,0,1,0,0,0,0,0,0,10000,0.3125,0.034375,9000,3600,10700,8700,0.195652174,0.07826087,0.232608696,0.189130435
20200620,1,1,0,0,0,0,200,45000,11.5,10800,10800,7800,7800,3000,4800,4800,3000,0,0,0,0,0,1,0,0,0,0,0,0,0,0,1,0,0,0,0,19000,0.422222222,0.004444444,17100,6500,16400,5000,0.37173913,0.141304348,0.356521739,0.108695652
20200621,1,0,1,0,0,0,200,43000,11.5,10800,10800,7800,7800,3000,4800,4800,3000,0,0,0,0,0,1,0,0,0,0,0,0,0,0,0,1,0,0,0,21000,0.488372093,0.004651163,18900,6500,12200,5400,0.410869565,0.141304348,0.265217391,0.117391304
20200622,1,0,0,0,0,0,200,31000,11.5,10800,10800,7800,7800,3000,4800,4800,3000,0,0,0,0,0,1,0,0,0,0,0,0,0,1,0,0,0,0,0,8000,0.258064516,0.006451613,7200,4800,8200,10800,0.156521739,0.104347826,0.17826087,0.234782609
20200623,1,0,0,0,0,0,500,29000,11.5,10800,10800,7800,7800,3000,4800,4800,3000,0,0,0,0,0,1,0,0,0,0,0,0,0,0,0,0,0,1,0,7000,0.24137931,0.017241379,6300,3600,6800,12300,0.136956522,0.07826087,0.147826087,0.267391304
20200624,1,0,0,0,0,0,400,26000,11.5,10800,10800,7800,7800,3000,4800,4800,3000,0,0,0,0,0,1,0,0,0,0,0,0,0,0,0,0,0,0,1,8000,0.307692308,0.015384615,7200,2000,5000,11800,0.156521739,0.043478261,0.108695652,0.256521739
20200625,1,0,0,0,0,0,900,27000,11.5,10800,10800,7800,7800,3000,4800,4800,3000,0,0,0,0,0,1,0,0,0,0,0,0,0,0,0,0,1,0,0,7000,0.259259259,0.033333333,6300,3500,6100,11100,0.136956522,0.076086957,0.132608696,0.241304348
20200626,1,0,0,0,0,0,1000,31000,11.5,10800,10800,7800,7800,3000,4800,4800,3000,0,0,0,0,0,1,0,0,0,0,0,0,1,0,0,0,0,0,0,9000,0.290322581,0.032258065,8100,3600,8800,10500,0.176086957,0.07826087,0.191304348,0.22826087
20200627,1,1,0,0,0,0,200,42000,11.5,10800,10800,7800,7800,3000,4800,4800,3000,0,0,0,0,0,1,0,0,0,0,0,0,0,0,1,0,0,0,0,19000,0.452380952,0.004761905,17100,4600,14700,5600,0.37173913,0.1,0.319565217,0.12173913
20200628,1,0,1,0,0,0,100,40000,11.5,10800,10800,7800,7800,3000,4800,4800,3000,0,0,0,0,0,1,0,0,0,0,0,0,0,0,0,1,0,0,0,21000,0.525,0.0025,18900,5700,9800,5600,0.410869565,0.123913043,0.213043478,0.12173913
20200629,1,0,0,0,0,0,200,33000,11.5,10800,10800,7800,7800,3000,4800,4800,3000,0,0,0,0,0,1,0,0,0,0,0,0,0,1,0,0,0,0,0,8000,0.242424242,0.006060606,7200,3700,8100,14000,0.156521739,0.080434783,0.176086957,0.304347826
20200630,1,0,0,0,0,0,500,29000,11.5,10800,10800,7800,7800,3000,4800,4800,3000,0,0,0,0,0,1,0,0,0,0,0,0,0,0,0,0,0,1,0,7000,0.24137931,0.017241379,6300,3000,7700,12000,0.136956522,0.065217391,0.167391304,0.260869565
20200701,1,0,0,0,0,0,800,31000,11.5,10800,10800,7800,7800,3000,4800,4800,3000,0,0,0,0,0,0,1,0,0,0,0,0,0,0,0,0,0,0,1,8000,0.258064516,0.025806452,7200,2500,8900,12400,0.156521739,0.054347826,0.193478261,0.269565217
20200702,1,0,0,0,0,0,1100,34000,11.5,10800,10800,7800,7800,3000,4800,4800,3000,0,0,0,0,0,0,1,0,0,0,0,0,0,0,0,0,1,0,0,8000,0.235294118,0.032352941,7200,3100,8700,15000,0.156521739,0.067391304,0.189130435,0.326086957
20200703,1,0,0,0,0,0,800,37000,11.5,10800,10800,7800,7800,3000,4800,4800,3000,0,0,0,0,0,0,1,0,0,0,0,0,1,0,0,0,0,0,0,9000,0.243243243,0.021621622,8100,4500,12800,11600,0.176086957,0.097826087,0.27826087,0.252173913
20200704,1,1,0,0,0,0,300,44000,11.5,10800,10800,7800,7800,3000,4800,4800,3000,0,0,0,0,0,0,1,0,0,0,0,0,0,0,1,0,0,0,0,18000,0.409090909,0.006818182,16200,5300,15500,7000,0.352173913,0.115217391,0.336956522,0.152173913
20200705,1,0,1,0,0,0,100,47000,11.5,10800,10800,7800,7800,3000,4800,4800,3000,0,0,0,0,0,0,1,0,0,0,0,0,0,0,0,1,0,0,0,24000,0.510638298,0.00212766,21600,6200,12100,7100,0.469565217,0.134782609,0.263043478,0.154347826
20200706,1,0,0,0,0,0,100,40000,11.5,10800,10800,7800,7800,3000,4800,4800,3000,0,0,0,0,0,0,1,0,0,0,0,0,0,1,0,0,0,0,0,11000,0.275,0.0025,9900,3400,11900,14800,0.215217391,0.073913043,0.258695652,0.32173913
20200707,1,0,0,0,0,0,300,35000,11.5,10800,10800,7800,7800,3000,4800,4800,3000,0,0,0,0,0,0,1,0,0,0,0,0,0,0,0,0,0,1,0,9000,0.257142857,0.008571429,8100,3400,10900,12600,0.176086957,0.073913043,0.236956522,0.273913043
20200708,1,0,0,0,0,0,400,39000,11.5,10800,10800,7800,7800,3000,4800,4800,3000,0,0,0,0,0,0,1,0,0,0,0,0,0,0,0,0,0,0,1,11000,0.282051282,0.01025641,9900,4100,10200,14800,0.215217391,0.089130435,0.22173913,0.32173913
20200709,1,0,0,0,0,0,600,37000,11.5,10800,10800,7800,7800,3000,4800,4800,3000,0,0,0,0,0,0,1,0,0,0,0,0,0,0,0,0,1,0,0,10000,0.27027027,0.016216216,9000,3400,10100,14500,0.195652174,0.073913043,0.219565217,0.315217391
20200710,1,0,0,0,0,0,500,41000,11.5,10800,10800,7800,7800,3000,4800,4800,3000,0,0,0,0,0,0,1,0,0,0,0,0,1,0,0,0,0,0,0,13000,0.317073171,0.012195122,11700,3400,12000,13900,0.254347826,0.073913043,0.260869565,0.302173913
20200711,1,1,0,0,0,0,100,45000,12,10800,10800,7800,7800,3000,4800,4800,3000,0,0,0,0,0,0,1,0,0,0,0,0,0,0,1,0,0,0,0,15000,0.333333333,0.002222222,13500,5700,19000,6800,0.293478261,0.123913043,0.413043478,0.147826087
20200712,1,0,1,0,0,0,100,47000,12,10800,10800,7800,7800,3000,4800,4800,3000,0,0,0,0,0,0,1,0,0,0,0,0,0,0,0,1,0,0,0,16000,0.340425532,0.00212766,14400,6300,21300,5000,0.313043478,0.136956522,0.463043478,0.108695652
20200713,1,0,0,0,0,0,100,39000,12,10800,10800,7800,7800,3000,4800,4800,3000,0,0,0,0,0,0,1,0,0,0,0,0,0,1,0,0,0,0,0,9000,0.230769231,0.002564103,8100,5900,12500,12500,0.176086957,0.12826087,0.27173913,0.27173913
20200714,1,0,0,0,0,0,100,41000,12,10800,10800,7800,7800,3000,4800,4800,3000,0,0,0,0,0,0,1,0,0,0,0,0,0,0,0,0,0,1,0,11000,0.268292683,0.002439024,9900,4300,12500,14300,0.215217391,0.093478261,0.27173913,0.310869565
20200715,1,0,0,0,0,0,200,43000,12,10800,10800,7800,7800,3000,4800,4800,3000,0,0,0,0,0,0,1,0,0,0,0,0,0,0,0,0,0,0,1,13000,0.302325581,0.004651163,11700,4400,10400,16500,0.254347826,0.095652174,0.226086957,0.358695652
20200716,1,0,0,0,0,0,200,40000,12,10800,10800,7800,7800,3000,4800,4800,3000,0,0,0,0,0,0,1,0,0,0,0,0,0,0,0,0,1,0,0,11000,0.275,0.005,9900,3300,10900,15900,0.215217391,0.07173913,0.236956522,0.345652174
20200717,1,0,0,0,0,0,200,35000,12,10800,10800,7800,7800,3000,4800,4800,3000,0,0,0,0,0,0,1,0,0,0,0,0,1,0,0,0,0,0,0,10000,0.285714286,0.005714286,9000,2700,11500,11800,0.195652174,0.058695652,0.25,0.256521739
20200718,1,1,0,0,1,0,100,46000,12,10800,10800,7800,7800,3000,4800,4800,3000,0,0,0,0,0,0,1,0,0,0,0,0,0,0,1,0,0,0,0,16000,0.347826087,0.002173913,14400,6400,16500,8700,0.313043478,0.139130435,0.358695652,0.189130435
20200719,1,0,1,0,1,0,100,50000,12,10800,10800,7800,7800,3000,4800,4800,3000,0,0,0,0,0,0,1,0,0,0,0,0,0,0,0,1,0,0,0,20000,0.4,0.002,18000,6400,17600,8000,0.391304348,0.139130435,0.382608696,0.173913043
20200720,1,0,0,0,1,0,100,50000,13.5,10800,10800,7800,7800,3000,4800,4800,3000,0,0,0,0,0,0,1,0,0,0,0,0,0,1,0,0,0,0,0,14000,0.28,0.002,12600,6400,17100,13900,0.273913043,0.139130435,0.37173913,0.302173913
20200721,1,0,0,0,1,0,200,48000,13.5,10800,10800,7800,7800,3000,4800,4800,3000,0,0,0,0,0,0,1,0,0,0,0,0,0,0,0,0,0,1,0,11000,0.229166667,0.004166667,9900,5200,18600,14300,0.215217391,0.113043478,0.404347826,0.310869565
20200722,1,0,0,0,1,0,200,49000,13.5,10800,10800,7800,7800,3000,4800,4800,3000,0,0,0,0,0,0,1,0,0,0,0,0,0,0,0,0,0,0,1,12000,0.244897959,0.004081633,10800,6000,18900,13300,0.234782609,0.130434783,0.410869565,0.289130435
20200723,1,1,0,0,1,0,100,52000,13.5,10800,10800,7800,7800,3000,4800,4800,3000,0,0,0,0,0,0,1,0,0,0,0,0,0,0,0,0,1,0,0,15000,0.288461538,0.001923077,13500,7000,18500,13000,0.293478261,0.152173913,0.402173913,0.282608696
20200724,1,1,0,1,1,0,200,47000,13.5,10800,10800,7800,7800,3000,4800,4800,3000,0,0,0,0,0,0,1,0,0,0,0,0,1,0,0,0,0,0,0,11000,0.234042553,0.004255319,9900,6100,17400,13600,0.215217391,0.132608696,0.37826087,0.295652174
20200725,1,1,0,1,1,0,100,42000,13.5,10800,10800,7800,7800,3000,4800,4800,3000,0,0,0,0,0,0,1,0,0,0,0,0,0,0,1,0,0,0,0,11000,0.261904762,0.002380952,9900,6200,18200,7700,0.215217391,0.134782609,0.395652174,0.167391304
20200726,1,0,1,0,1,0,100,51000,13.5,10800,10800,7800,7800,3000,4800,4800,3000,0,0,0,0,0,0,1,0,0,0,0,0,0,0,0,1,0,0,0,20000,0.392156863,0.001960784,18000,6700,19000,7300,0.391304348,0.145652174,0.413043478,0.158695652
20200727,1,0,0,0,1,0,100,53000,13.5,10800,10800,7800,7800,3000,4800,4800,3000,0,0,0,0,0,0,1,0,0,0,0,0,0,1,0,0,0,0,0,13000,0.245283019,0.001886792,11700,5900,21300,14100,0.254347826,0.12826087,0.463043478,0.306521739
20200728,1,0,0,0,1,0,100,49000,13.5,10800,10800,7800,7800,3000,4800,4800,3000,0,0,0,0,0,0,1,0,0,0,0,0,0,0,0,0,0,1,0,13000,0.265306122,0.002040816,11700,5100,17600,14600,0.254347826,0.110869565,0.382608696,0.317391304
20200729,1,0,0,0,1,0,100,51000,13.5,10800,10800,7800,7800,3000,4800,4800,3000,0,0,0,0,0,0,1,0,0,0,0,0,0,0,0,0,0,0,1,15000,0.294117647,0.001960784,13500,5700,19300,12500,0.293478261,0.123913043,0.419565217,0.27173913
20200730,1,0,0,0,1,0,200,50000,13.5,10800,10800,7800,7800,3000,4800,4800,3000,0,0,0,0,0,0,1,0,0,0,0,0,0,0,0,0,1,0,0,14000,0.28,0.004,12600,5700,18700,13000,0.273913043,0.123913043,0.406521739,0.282608696
20200731,1,0,0,0,1,0,300,49000,13.5,10800,10800,7800,7800,3000,4800,4800,3000,0,0,0,0,0,0,1,0,0,0,0,0,1,0,0,0,0,0,0,13000,0.265306122,0.006122449,11700,5300,20500,11500,0.254347826,0.115217391,0.445652174,0.25
20200801,1,1,0,0,1,0,300,51000,13.5,10800,10800,7800,7800,3000,4800,4800,3000,0,0,0,0,0,0,0,1,0,0,0,0,0,0,1,0,0,0,0,17000,0.333333333,0.005882353,15300,6000,20000,9700,0.332608696,0.130434783,0.434782609,0.210869565
20200802,1,0,1,0,1,0,100,57000,13.5,10800,10800,7800,7800,3000,4800,4800,3000,0,0,0,0,0,0,0,1,0,0,0,0,0,0,0,1,0,0,0,23000,0.403508772,0.001754386,20700,6000,21000,9300,0.45,0.130434783,0.456521739,0.202173913
20200803,1,0,0,0,1,0,100,60000,13.5,10800,10800,7800,7800,3000,4800,4800,3000,0,0,0,0,0,0,0,1,0,0,0,0,0,1,0,0,0,0,0,16000,0.266666667,0.001666667,14400,4900,25900,14800,0.313043478,0.106521739,0.563043478,0.32173913
20200804,1,0,0,0,1,0,100,61000,13.5,10800,10800,7800,7800,3000,4800,4800,3000,0,0,0,0,0,0,0,1,0,0,0,0,0,0,0,0,0,1,0,16000,0.262295082,0.001639344,14400,5100,26900,14600,0.313043478,0.110869565,0.584782609,0.317391304
20200805,1,0,0,0,1,0,100,65000,13.5,10800,10800,7800,7800,3000,4800,4800,3000,0,0,0,0,0,0,0,1,0,0,0,0,0,0,0,0,0,0,1,19000,0.292307692,0.001538462,17100,6400,26400,15100,0.37173913,0.139130435,0.573913043,0.32826087
20200806,1,0,0,1,1,0,100,60000,13.5,10800,10800,7800,7800,3000,4800,4800,3000,0,0,0,0,0,0,0,1,0,0,0,0,0,0,0,0,1,0,0,15000,0.25,0.001666667,13500,7200,24700,14600,0.293478261,0.156521739,0.536956522,0.317391304
20200807,1,0,0,1,1,0,100,64000,13.5,10800,10800,7800,7800,3000,4800,4800,3000,0,0,0,0,0,0,0,1,0,0,0,0,1,0,0,0,0,0,0,15000,0.234375,0.0015625,13500,7200,29200,14100,0.293478261,0.156521739,0.634782609,0.306521739
20200808,1,1,0,1,1,0,100,46000,13.5,10800,10800,7800,7800,3000,4800,4800,3000,0,0,0,0,0,0,0,1,0,0,0,0,0,0,1,0,0,0,0,3000,0.065217391,0.002173913,2700,7100,26500,9700,0.058695652,0.154347826,0.576086957,0.210869565
20200809,1,1,0,1,1,0,100,52000,13.5,10800,10800,7800,7800,3000,4800,4800,3000,0,0,0,0,0,0,0,1,0,0,0,0,0,0,0,1,0,0,0,6000,0.115384615,0.001923077,5400,7900,29200,9500,0.117391304,0.17173913,0.634782609,0.206521739
20200810,1,0,1,1,1,0,100,62000,13.5,10800,10800,7800,7800,3000,4800,4800,3000,0,0,0,0,0,0,0,1,0,0,0,0,0,1,0,0,0,0,0,4000,0.064516129,0.001612903,3600,8400,35000,15000,0.07826087,0.182608696,0.760869565,0.326086957
20200811,1,0,0,1,1,0,100,54000,13.5,10800,10800,7800,7800,3000,4800,4800,3000,0,0,0,0,0,0,0,1,0,0,0,0,0,0,0,0,0,1,0,4000,0.074074074,0.001851852,3600,7600,29400,13400,0.07826087,0.165217391,0.639130435,0.291304348
20200812,1,0,0,1,1,0,100,51000,13.5,10800,10800,7800,7800,3000,4800,4800,3000,0,0,0,0,0,0,0,1,0,0,0,0,0,0,0,0,0,0,1,3000,0.058823529,0.001960784,2700,6900,27300,14100,0.058695652,0.15,0.593478261,0.306521739
20200813,1,0,0,1,1,0,100,49000,13.5,10800,10800,7800,7800,3000,4800,4800,3000,0,0,0,0,0,0,0,1,0,0,0,0,0,0,0,0,1,0,0,4000,0.081632653,0.002040816,3600,7000,26400,12000,0.07826087,0.152173913,0.573913043,0.260869565
20200814,1,0,0,1,1,0,100,52000,13.5,10800,10800,7800,7800,3000,4800,4800,3000,0,0,0,0,0,0,0,1,0,0,0,0,1,0,0,0,0,0,0,4000,0.076923077,0.001923077,3600,7100,28800,12500,0.07826087,0.154347826,0.626086957,0.27173913
20200815,1,1,0,1,1,0,100,57000,13.5,10800,10800,7800,7800,3000,4800,4800,3000,0,0,0,0,0,0,0,1,0,0,0,0,0,0,1,0,0,0,0,17000,0.298245614,0.001754386,15300,7300,25300,9100,0.332608696,0.158695652,0.55,0.197826087
20200816,1,0,1,1,1,0,100,55000,13.5,10800,10800,7800,7800,3000,4800,4800,3000,0,0,0,0,0,0,0,1,0,0,0,0,0,0,0,1,0,0,0,20000,0.363636364,0.001818182,18000,7200,20800,9000,0.391304348,0.156521739,0.452173913,0.195652174
20200817,1,0,0,1,1,0,100,64000,13.5,10800,10800,7800,7800,3000,4800,4800,3000,0,0,0,0,0,0,0,1,0,0,0,0,0,1,0,0,0,0,0,14000,0.21875,0.0015625,12600,7900,29300,14200,0.273913043,0.17173913,0.636956522,0.308695652
20200818,1,0,0,1,1,0,100,62000,13.5,10800,10800,7800,7800,3000,4800,4800,3000,0,0,0,0,0,0,0,1,0,0,0,0,0,0,0,0,0,1,0,16000,0.258064516,0.001612903,14400,6400,28300,12900,0.313043478,0.139130435,0.615217391,0.280434783
20200819,1,0,0,1,1,0,100,62000,13.5,10800,10800,7800,7800,3000,4800,4800,3000,0,0,0,0,0,0,0,1,0,0,0,0,0,0,0,0,0,0,1,17000,0.274193548,0.001612903,15300,8400,25500,12800,0.332608696,0.182608696,0.554347826,0.27826087
20200820,1,0,0,1,1,0,200,55000,13.5,10800,10800,7800,7800,3000,4800,4800,3000,0,0,0,0,0,0,0,1,0,0,0,0,0,0,0,0,1,0,0,14000,0.254545455,0.003636364,12600,6100,21700,14600,0.273913043,0.132608696,0.47173913,0.317391304
20200821,1,0,0,1,1,0,100,56000,13.5,10800,10800,7800,7800,3000,4800,4800,3000,0,0,0,0,0,0,0,1,0,0,0,0,1,0,0,0,0,0,0,13000,0.232142857,0.001785714,11700,5900,23800,14600,0.254347826,0.12826087,0.517391304,0.317391304
20200822,1,1,0,0,1,0,0,65000,13.5,10800,10800,7800,7800,3000,4800,4800,3000,0,0,0,0,0,0,0,1,0,0,0,0,0,0,1,0,0,0,0,25000,0.384615385,0,22500,8000,27500,7000,0.489130435,0.173913043,0.597826087,0.152173913
20200823,1,0,1,0,1,0,0,67000,13.5,10800,10800,7800,7800,3000,4800,4800,3000,0,0,0,0,0,0,0,1,0,0,0,0,0,0,0,1,0,0,0,29000,0.432835821,0,26100,7500,26600,6800,0.567391304,0.163043478,0.57826087,0.147826087
20200824,1,0,0,0,1,0,100,65000,13.5,10800,10800,7800,7800,3000,4800,4800,3000,0,0,0,0,0,0,0,1,0,0,0,0,0,1,0,0,0,0,0,20000,0.307692308,0.001538462,18000,6500,27200,13300,0.391304348,0.141304348,0.591304348,0.289130435
20200825,1,0,0,0,1,0,0,61000,13.5,10800,10800,7800,7800,3000,4800,4800,3000,0,0,0,0,0,0,0,1,0,0,0,0,0,0,0,0,0,1,0,18000,0.295081967,0,16200,7300,24800,12700,0.352173913,0.158695652,0.539130435,0.276086957
20200826,1,0,0,0,1,0,100,62000,12,10800,10800,7800,7800,3000,4800,4800,3000,0,0,0,0,0,0,0,1,0,0,0,0,0,0,0,0,0,0,1,21000,0.338709677,0.001612903,18900,8200,20500,14400,0.410869565,0.17826087,0.445652174,0.313043478
20200827,1,0,0,0,1,0,200,58000,12,10800,10800,7800,7800,3000,4800,4800,3000,0,0,0,0,0,0,0,1,0,0,0,0,0,0,0,0,1,0,0,21000,0.362068966,0.003448276,18900,6300,20800,12000,0.410869565,0.136956522,0.452173913,0.260869565
20200828,1,0,0,0,1,0,100,54000,12,10800,10800,7800,7800,3000,4800,4800,3000,0,0,0,0,0,0,0,1,0,0,0,0,1,0,0,0,0,0,0,16000,0.296296296,0.001851852,14400,7600,21300,10700,0.313043478,0.165217391,0.463043478,0.232608696
20200829,1,1,0,0,1,0,100,60000,12,10800,10800,7800,7800,3000,4800,4800,3000,0,0,0,0,0,0,0,1,0,0,0,0,0,0,1,0,0,0,0,27000,0.45,0.001666667,24300,9400,20900,5400,0.52826087,0.204347826,0.454347826,0.117391304
20200830,1,0,1,0,1,0,0,59000,12,10800,10800,7800,7800,3000,4800,4800,3000,0,0,0,0,0,0,0,1,0,0,0,0,0,0,0,1,0,0,0,31000,0.525423729,0,27900,8900,17400,4800,0.606521739,0.193478261,0.37826087,0.104347826
20200831,1,0,0,0,0,0,0,43000,12,10800,10800,7800,7800,3000,4800,4800,3000,0,0,0,0,0,0,0,1,0,0,0,0,0,1,0,0,0,0,0,14000,0.325581395,0,12600,4300,14800,11300,0.273913043,0.093478261,0.32173913,0.245652174
20200901,1,0,0,0,0,0,100,31000,11,10800,10800,7800,7800,3000,4800,4800,3000,0,0,0,0,0,0,0,0,1,0,0,0,0,0,0,0,0,1,0,8000,0.258064516,0.003225806,7200,3500,12300,8000,0.156521739,0.076086957,0.267391304,0.173913043
20200902,1,0,0,0,0,0,600,28000,11,10800,10800,7800,7800,3000,4800,4800,3000,0,0,0,0,0,0,0,0,1,0,0,0,0,0,0,0,0,0,1,7000,0.25,0.021428571,6300,2500,11600,7600,0.136956522,0.054347826,0.252173913,0.165217391
20200903,1,0,0,0,0,0,1300,42000,12,10800,10800,7800,7800,3000,4800,4800,3000,0,0,0,0,0,0,0,0,1,0,0,0,0,0,0,0,1,0,0,9000,0.214285714,0.030952381,8100,4900,16900,12100,0.176086957,0.106521739,0.367391304,0.263043478
20200904,1,0,0,0,0,1,1600,45000,9.5,10800,10800,7800,7800,3000,4800,4800,3000,0,0,0,0,0,0,0,0,1,0,0,0,1,0,0,0,0,0,0,10000,0.222222222,0.035555556,9000,7700,19300,9000,0.195652174,0.167391304,0.419565217,0.195652174
20200905,1,1,0,1,0,1,100,54000,12,10800,10800,7800,7800,3000,4800,4800,3000,0,0,0,0,0,0,0,0,1,0,0,0,0,0,1,0,0,0,0,20000,0.37037037,0.001851852,18000,9600,20900,5500,0.391304348,0.208695652,0.454347826,0.119565217
20200906,1,0,1,1,0,1,100,46000,12,10800,10800,7800,7800,3000,4800,4800,3000,0,0,0,0,0,0,0,0,1,0,0,0,0,0,0,1,0,0,0,21000,0.456521739,0.002173913,18900,9000,13200,4900,0.410869565,0.195652174,0.286956522,0.106521739
20200907,1,0,0,0,0,1,200,52000,12,10800,10800,7800,7800,3000,4800,4800,3000,0,0,0,0,0,0,0,0,1,0,0,0,0,1,0,0,0,0,0,20000,0.384615385,0.003846154,18000,7400,17400,9200,0.391304348,0.160869565,0.37826087,0.2
20200908,1,0,0,0,0,1,700,46000,12,10800,10800,7800,7800,3000,4800,4800,3000,0,0,0,0,0,0,0,0,1,0,0,0,0,0,0,0,0,1,0,15000,0.326086957,0.015217391,13500,5100,19600,7800,0.293478261,0.110869565,0.426086957,0.169565217
20200909,1,0,0,0,0,1,1600,47000,12,10800,10800,7800,7800,3000,4800,4800,3000,0,0,0,0,0,0,0,0,1,0,0,0,0,0,0,0,0,0,1,15000,0.319148936,0.034042553,13500,6100,17500,9900,0.293478261,0.132608696,0.380434783,0.215217391
20200910,1,0,0,0,0,1,2300,52000,12,10800,10800,7800,7800,3000,4800,4800,3000,0,0,0,0,0,0,0,0,1,0,0,0,0,0,0,0,1,0,0,17000,0.326923077,0.044230769,15300,6100,18700,11900,0.332608696,0.132608696,0.406521739,0.258695652
20200911,1,0,0,0,0,1,2300,54000,12,10800,10800,7800,7800,3000,4800,4800,3000,0,0,0,0,0,0,0,0,1,0,0,0,1,0,0,0,0,0,0,20000,0.37037037,0.042592593,18000,6800,19200,10000,0.391304348,0.147826087,0.417391304,0.217391304
20200912,1,1,0,1,0,1,100,58000,13,10800,10800,7800,7800,3000,4800,4800,3000,0,0,0,0,0,0,0,0,1,0,0,0,0,0,1,0,0,0,0,23000,0.396551724,0.001724138,20700,8800,24500,4000,0.45,0.191304348,0.532608696,0.086956522
20200913,1,0,1,1,0,1,100,59000,13,10800,10800,7800,7800,3000,4800,4800,3000,0,0,0,0,0,0,0,0,1,0,0,0,0,0,0,1,0,0,0,22000,0.372881356,0.001694915,19800,8700,26300,4200,0.430434783,0.189130435,0.57173913,0.091304348
20200914,1,0,0,0,0,1,100,53000,12,10800,10800,7800,7800,3000,4800,4800,3000,0,0,0,0,0,0,0,0,1,0,0,0,0,1,0,0,0,0,0,20000,0.377358491,0.001886792,18000,7500,19600,7900,0.391304348,0.163043478,0.426086957,0.17173913
20200915,1,0,0,0,0,1,400,52000,12,10800,10800,7800,7800,3000,4800,4800,3000,0,0,0,0,0,0,0,0,1,0,0,0,0,0,0,0,0,1,0,18000,0.346153846,0.007692308,16200,7300,19900,8600,0.352173913,0.158695652,0.432608696,0.186956522
20200916,1,0,0,0,0,1,1600,54000,12,10800,10800,7800,7800,3000,4800,4800,3000,0,0,0,0,0,0,0,0,1,0,0,0,0,0,0,0,0,0,1,19000,0.351851852,0.02962963,17100,8700,18500,9700,0.37173913,0.189130435,0.402173913,0.210869565
20200917,1,0,0,0,0,1,2300,50000,12,10800,10800,7800,7800,3000,4800,4800,3000,0,0,0,0,0,0,0,0,1,0,0,0,0,0,0,0,1,0,0,20000,0.4,0.046,18000,7800,15800,8400,0.391304348,0.169565217,0.343478261,0.182608696
20200918,1,0,0,0,0,1,3000,56000,12,10800,10800,7800,7800,3000,4800,4800,3000,0,0,0,0,0,0,0,0,1,0,0,0,1,0,0,0,0,0,0,21000,0.375,0.053571429,18900,7100,21200,8800,0.410869565,0.154347826,0.460869565,0.191304348
20200919,1,1,0,1,0,1,100,69000,13.5,10800,10800,7800,7800,3000,4800,4800,3000,0,0,0,0,0,0,0,0,1,0,0,0,0,0,1,0,0,0,0,27000,0.391304348,0.001449275,24300,12400,28200,4100,0.52826087,0.269565217,0.613043478,0.089130435
20200920,1,1,0,1,0,1,100,65000,13.5,10800,10800,7800,7800,3000,4800,4800,3000,0,0,0,0,0,0,0,0,1,0,0,0,0,0,0,1,0,0,0,5000,0.076923077,0.001538462,4500,13800,42100,4600,0.097826087,0.3,0.915217391,0.1
20200921,1,1,0,1,0,1,300,67000,13.5,10800,10800,7800,7800,3000,4800,4800,3000,0,0,0,0,0,0,0,0,1,0,0,0,0,1,0,0,0,0,0,5000,0.074626866,0.004477612,4500,14600,39000,8900,0.097826087,0.317391304,0.847826087,0.193478261
20200922,1,0,1,1,0,1,1000,78000,13.5,10800,10800,7800,7800,3000,4800,4800,3000,0,0,0,0,0,0,0,0,1,0,0,0,0,0,0,0,0,1,0,28000,0.358974359,0.012820513,25200,12300,30500,10000,0.547826087,0.267391304,0.663043478,0.217391304
20200923,1,0,0,0,0,1,1500,58000,13,10800,10800,7800,7800,3000,4800,4800,3000,0,0,0,0,0,0,0,0,1,0,0,0,0,0,0,0,0,0,1,21000,0.362068966,0.025862069,18900,11800,17500,9800,0.410869565,0.256521739,0.380434783,0.213043478
20200924,1,0,0,0,0,1,3100,55000,13,10800,10800,7800,7800,3000,4800,4800,3000,0,0,0,0,0,0,0,0,1,0,0,0,0,0,0,0,1,0,0,16000,0.290909091,0.056363636,14400,8900,19300,12400,0.313043478,0.193478261,0.419565217,0.269565217
20200925,1,0,0,0,0,1,2600,57000,13,10800,10800,7800,7800,3000,4800,4800,3000,0,0,0,0,0,0,0,0,1,0,0,0,1,0,0,0,0,0,0,20000,0.350877193,0.045614035,18000,7200,17900,13900,0.391304348,0.156521739,0.389130435,0.302173913
20200926,1,1,0,1,0,1,400,56000,13,10800,10800,7800,7800,3000,4800,4800,3000,0,0,0,0,0,0,0,0,1,0,0,0,0,0,1,0,0,0,0,23000,0.410714286,0.007142857,20700,9300,20000,6000,0.45,0.202173913,0.434782609,0.130434783
20200927,1,0,1,1,0,1,200,56000,13,10800,10800,7800,7800,3000,4800,4800,3000,0,0,0,0,0,0,0,0,1,0,0,0,0,0,0,1,0,0,0,27000,0.482142857,0.003571429,24300,14200,12700,4800,0.52826087,0.308695652,0.276086957,0.104347826
20200928,1,0,0,0,0,1,500,68000,13,10800,10800,7800,7800,3000,4800,4800,3000,0,0,0,0,0,0,0,0,1,0,0,0,0,1,0,0,0,0,0,26000,0.382352941,0.007352941,23400,16500,16100,12000,0.508695652,0.358695652,0.35,0.260869565
20200929,1,0,0,0,0,1,900,50000,13,10800,10800,7800,7800,3000,4800,4800,3000,0,0,0,0,0,0,0,0,1,0,0,0,0,0,0,0,0,1,0,14000,0.28,0.018,12600,6200,15000,16200,0.273913043,0.134782609,0.326086957,0.352173913
20200930,1,0,0,0,0,1,1800,52000,13,10800,10800,7800,7800,3000,4800,4800,3000,0,0,0,0,0,0,0,0,1,0,0,0,0,0,0,0,0,0,1,15000,0.288461538,0.034615385,13500,6200,13500,18800,0.293478261,0.134782609,0.293478261,0.408695652
20201001,1,0,0,0,0,1,4100,53000,13,10800,10800,7800,7800,3000,4800,4800,3000,0,0,0,0,0,0,0,0,0,1,0,0,0,0,0,0,1,0,0,14000,0.264150943,0.077358491,12600,5600,19400,15400,0.273913043,0.12173913,0.42173913,0.334782609
20201002,1,0,0,0,0,1,3800,50000,13,10800,10800,7800,7800,3000,4800,4800,3000,0,0,0,0,0,0,0,0,0,1,0,0,1,0,0,0,0,0,0,14000,0.28,0.076,12600,5700,17500,14200,0.273913043,0.123913043,0.380434783,0.308695652
20201003,1,1,0,1,0,1,300,62000,13,10800,10800,7800,7800,3000,4800,4800,3000,0,0,0,0,0,0,0,0,0,1,0,0,0,0,1,0,0,0,0,18000,0.290322581,0.00483871,16200,11900,28000,5900,0.352173913,0.258695652,0.608695652,0.12826087
20201004,1,0,1,1,0,1,200,61000,13,10800,10800,7800,7800,3000,4800,4800,3000,0,0,0,0,0,0,0,0,0,1,0,0,0,0,0,1,0,0,0,18000,0.295081967,0.003278689,16200,20000,20000,4800,0.352173913,0.434782609,0.434782609,0.104347826
20201005,1,0,0,0,0,1,100,58000,13,10800,10800,7800,7800,3000,4800,4800,3000,0,0,0,0,0,0,0,0,0,1,0,0,0,1,0,0,0,0,0,21000,0.362068966,0.001724138,18900,11500,17400,10200,0.410869565,0.25,0.37826087,0.22173913
20201006,1,0,0,0,0,1,800,58000,13,10800,10800,7800,7800,3000,4800,4800,3000,0,0,0,0,0,0,0,0,0,1,0,0,0,0,0,0,0,1,0,17000,0.293103448,0.013793103,15300,11500,19000,12200,0.332608696,0.25,0.413043478,0.265217391
20201007,1,0,0,0,0,1,1800,52000,13,10800,10800,7800,7800,3000,4800,4800,3000,0,0,0,0,0,0,0,0,0,1,0,0,0,0,0,0,0,0,1,16000,0.307692308,0.034615385,14400,8800,17300,11500,0.313043478,0.191304348,0.376086957,0.25
20201008,1,0,0,0,0,1,4700,54000,13,10800,10800,7800,7800,3000,4800,4800,3000,0,0,0,0,0,0,0,0,0,1,0,0,0,0,0,0,1,0,0,14000,0.259259259,0.087037037,12600,7700,19000,14700,0.273913043,0.167391304,0.413043478,0.319565217
20201009,1,0,0,0,0,1,3900,53000,13.5,10800,10800,7800,7800,3000,4800,4800,3000,0,0,0,0,0,0,0,0,0,1,0,0,1,0,0,0,0,0,0,16000,0.301886792,0.073584906,14400,7100,19600,11900,0.313043478,0.154347826,0.426086957,0.258695652
20201010,1,1,0,1,0,1,300,69000,13.5,10800,10800,7800,7800,3000,4800,4800,3000,0,0,0,0,0,0,0,0,0,1,0,0,0,0,1,0,0,0,0,22000,0.31884058,0.004347826,19800,13900,30300,5000,0.430434783,0.302173913,0.658695652,0.108695652
20201011,1,0,1,1,0,1,300,66000,13.5,10800,10800,7800,7800,3000,4800,4800,3000,0,0,0,0,0,0,0,0,0,1,0,0,0,0,0,1,0,0,0,23000,0.348484848,0.004545455,20700,16700,24900,3700,0.45,0.363043478,0.541304348,0.080434783
20201012,1,0,0,0,0,1,700,57000,13.5,10800,10800,7800,7800,3000,4800,4800,3000,0,0,0,0,0,0,0,0,0,1,0,0,0,1,0,0,0,0,0,19000,0.333333333,0.012280702,17100,11800,20200,7900,0.37173913,0.256521739,0.439130435,0.17173913
20201013,1,0,0,0,0,1,1700,57000,13,10800,10800,7800,7800,3000,4800,4800,3000,0,0,0,0,0,0,0,0,0,1,0,0,0,0,0,0,0,1,0,17000,0.298245614,0.029824561,15300,9000,20900,11800,0.332608696,0.195652174,0.454347826,0.256521739
20201014,1,0,0,0,0,1,2600,57000,13,10800,10800,7800,7800,3000,4800,4800,3000,0,0,0,0,0,0,0,0,0,1,0,0,0,0,0,0,0,0,1,18000,0.315789474,0.045614035,16200,9100,20100,11600,0.352173913,0.197826087,0.436956522,0.252173913
20201015,1,0,0,0,0,1,4900,56000,13,10800,10800,7800,7800,3000,4800,4800,3000,0,0,0,0,0,0,0,0,0,1,0,0,0,0,0,0,1,0,0,16000,0.285714286,0.0875,14400,8800,20300,12500,0.313043478,0.191304348,0.441304348,0.27173913
20201016,1,0,0,0,0,1,5100,57000,13.5,10800,10800,7800,7800,3000,4800,4800,3000,0,0,0,0,0,0,0,0,0,1,0,0,1,0,0,0,0,0,0,18000,0.315789474,0.089473684,16200,9400,21600,9800,0.352173913,0.204347826,0.469565217,0.213043478
20201017,1,1,0,1,0,1,200,70000,13.5,10800,10800,7800,7800,3000,4800,4800,3000,0,0,0,0,0,0,0,0,0,1,0,0,0,0,1,0,0,0,0,22000,0.314285714,0.002857143,19800,14900,31300,4000,0.430434783,0.323913043,0.680434783,0.086956522
20201018,1,0,1,1,0,1,400,61000,13.5,10800,10800,7800,7800,3000,4800,4800,3000,0,0,0,0,0,0,0,0,0,1,0,0,0,0,0,1,0,0,0,23000,0.37704918,0.006557377,20700,18100,18800,3400,0.45,0.393478261,0.408695652,0.073913043
20201019,1,0,0,0,0,1,1200,59000,13.5,10800,10800,7800,7800,3000,4800,4800,3000,0,0,0,0,0,0,0,0,0,1,0,0,0,1,0,0,0,0,0,19000,0.322033898,0.020338983,17100,10700,18200,13000,0.37173913,0.232608696,0.395652174,0.282608696
20201020,1,0,0,0,0,1,2200,50000,13,10800,10800,7800,7800,3000,4800,4800,3000,0,0,0,0,0,0,0,0,0,1,0,0,0,0,0,0,0,1,0,16000,0.32,0.044,14400,7700,17000,10900,0.313043478,0.167391304,0.369565217,0.236956522
20201021,1,0,0,0,0,1,3800,56000,13,10800,10800,7800,7800,3000,4800,4800,3000,0,0,0,0,0,0,0,0,0,1,0,0,0,0,0,0,0,0,1,19000,0.339285714,0.067857143,17100,9800,18600,10500,0.37173913,0.213043478,0.404347826,0.22826087
20201022,1,0,0,0,0,1,5600,61000,13,10800,10800,7800,7800,3000,4800,4800,3000,0,0,0,0,0,0,0,0,0,1,0,0,0,0,0,0,1,0,0,18000,0.295081967,0.091803279,16200,10100,20400,14300,0.352173913,0.219565217,0.443478261,0.310869565
20201023,1,0,0,0,0,1,5400,60000,13.5,10800,10800,7800,7800,3000,4800,4800,3000,0,0,0,0,0,0,0,0,0,1,0,0,1,0,0,0,0,0,0,18000,0.3,0.09,16200,11100,22500,10200,0.352173913,0.241304348,0.489130435,0.22173913
20201024,1,1,0,1,0,1,200,69000,13.5,10800,10800,7800,7800,3000,4800,4800,3000,0,0,0,0,0,0,0,0,0,1,0,0,0,0,1,0,0,0,0,22000,0.31884058,0.002898551,19800,15500,29700,4000,0.430434783,0.336956522,0.645652174,0.086956522
20201025,1,0,1,1,0,1,300,65000,13.5,10800,10800,7800,7800,3000,4800,4800,3000,0,0,0,0,0,0,0,0,0,1,0,0,0,0,0,1,0,0,0,26000,0.4,0.004615385,23400,16200,20600,4800,0.508695652,0.352173913,0.447826087,0.104347826
20201026,1,0,0,1,0,1,1600,70000,13.5,10800,10800,7800,7800,3000,4800,4800,3000,0,0,0,0,0,0,0,0,0,1,0,0,0,1,0,0,0,0,0,26000,0.371428571,0.022857143,23400,14000,20700,11900,0.508695652,0.304347826,0.45,0.258695652
20201027,1,0,0,0,0,1,2200,55000,13,10800,10800,7800,7800,3000,4800,4800,3000,0,0,0,0,0,0,0,0,0,1,0,0,0,0,0,0,0,1,0,19000,0.345454545,0.04,17100,8300,18200,11400,0.37173913,0.180434783,0.395652174,0.247826087
20201028,1,0,0,0,0,1,3200,64000,13,10800,10800,7800,7800,3000,4800,4800,3000,0,0,0,0,0,0,0,0,0,1,0,0,0,0,0,0,0,0,1,24000,0.375,0.05,21600,11300,19200,11900,0.469565217,0.245652174,0.417391304,0.258695652
20201029,1,0,0,0,0,1,4100,68000,13,10800,10800,7800,7800,3000,4800,4800,3000,0,0,0,0,0,0,0,0,0,1,0,0,0,0,0,0,1,0,0,26000,0.382352941,0.060294118,23400,12600,20700,11300,0.508695652,0.273913043,0.45,0.245652174
20201030,1,0,0,0,0,1,2200,77000,13.5,10800,10800,7800,7800,3000,4800,4800,3000,0,0,0,0,0,0,0,0,0,1,0,0,1,0,0,0,0,0,0,30000,0.38961039,0.028571429,27000,13700,27600,8700,0.586956522,0.297826087,0.6,0.189130435
20201031,1,1,0,1,0,1,100,73000,13.5,10800,10800,7800,7800,3000,4800,4800,3000,0,0,0,0,0,0,0,0,0,1,0,0,0,0,1,0,0,0,0,25000,0.342465753,0.001369863,22500,16500,28400,5600,0.489130435,0.358695652,0.617391304,0.12173913
20201101,1,0,1,1,0,1,200,88000,13.5,10800,10800,7800,7800,3000,4800,4800,3000,0,0,0,0,0,0,0,0,0,0,1,0,0,0,0,1,0,0,0,38000,0.431818182,0.002272727,34200,20100,27600,6100,0.743478261,0.436956522,0.6,0.132608696
20201102,1,0,0,1,0,0,700,57000,13.5,10800,10800,7800,7800,3000,4800,4800,3000,0,0,0,0,0,0,0,0,0,0,1,0,0,1,0,0,0,0,0,17000,0.298245614,0.012280702,15300,9900,22900,8900,0.332608696,0.215217391,0.497826087,0.193478261
20201103,1,0,1,1,0,0,2400,56000,13.5,10800,10800,7800,7800,3000,4800,4800,3000,0,0,0,0,0,0,0,0,0,0,1,0,0,0,0,0,0,1,0,22000,0.392857143,0.042857143,19800,11000,17600,7600,0.430434783,0.239130435,0.382608696,0.165217391
20201104,1,0,0,0,0,0,3700,41000,11.5,10800,10800,7800,7800,3000,4800,4800,3000,0,0,0,0,0,0,0,0,0,0,1,0,0,0,0,0,0,0,1,13000,0.317073171,0.090243902,11700,5100,13400,10800,0.254347826,0.110869565,0.291304348,0.234782609
20201105,1,0,0,0,0,0,5500,45000,11.5,10800,10800,7800,7800,3000,4800,4800,3000,0,0,0,0,0,0,0,0,0,0,1,0,0,0,0,0,1,0,0,13000,0.288888889,0.122222222,11700,5100,14900,13300,0.254347826,0.110869565,0.323913043,0.289130435
20201106,1,0,0,0,0,0,3700,53000,13,10800,10800,7800,7800,3000,4800,4800,3000,0,0,0,0,0,0,0,0,0,0,1,0,1,0,0,0,0,0,0,18000,0.339622642,0.069811321,16200,7100,18100,11600,0.352173913,0.154347826,0.393478261,0.252173913
20201107,1,1,0,0,0,0,900,65000,13,10800,10800,7800,7800,3000,4800,4800,3000,0,0,0,0,0,0,0,0,0,0,1,0,0,0,1,0,0,0,0,22000,0.338461538,0.013846154,19800,15100,24700,5400,0.430434783,0.32826087,0.536956522,0.117391304
20201108,1,0,1,0,0,0,400,60000,13,10800,10800,7800,7800,3000,4800,4800,3000,0,0,0,0,0,0,0,0,0,0,1,0,0,0,0,1,0,0,0,23000,0.383333333,0.006666667,20700,15600,19300,4400,0.45,0.339130435,0.419565217,0.095652174
20201109,1,0,0,0,0,0,1700,58000,13,10800,10800,7800,7800,3000,4800,4800,3000,0,0,0,0,0,0,0,0,0,0,1,0,0,1,0,0,0,0,0,19000,0.327586207,0.029310345,17100,11200,20100,9600,0.37173913,0.243478261,0.436956522,0.208695652
20201110,1,0,0,0,0,0,2600,42000,13,10800,10800,7800,7800,3000,4800,4800,3000,0,0,0,0,0,0,0,0,0,0,1,0,0,0,0,0,0,1,0,12000,0.285714286,0.061904762,10800,5200,15000,11000,0.234782609,0.113043478,0.326086957,0.239130435
20201111,1,0,0,0,0,0,3900,49000,13,10800,10800,7800,7800,3000,4800,4800,3000,0,0,0,0,0,0,0,0,0,0,1,0,0,0,0,0,0,0,1,14000,0.285714286,0.079591837,12600,7000,17000,12400,0.273913043,0.152173913,0.369565217,0.269565217
20201112,1,0,0,0,0,0,6000,49000,13,10800,10800,7800,7800,3000,4800,4800,3000,0,0,0,0,0,0,0,0,0,0,1,0,0,0,0,0,1,0,0,13000,0.265306122,0.12244898,11700,6700,17500,13100,0.254347826,0.145652174,0.380434783,0.284782609
20201113,1,0,0,0,0,0,3700,51000,13,10800,10800,7800,7800,3000,4800,4800,3000,0,0,0,0,0,0,0,0,0,0,1,0,1,0,0,0,0,0,0,13000,0.254901961,0.07254902,11700,7000,20500,11800,0.254347826,0.152173913,0.445652174,0.256521739
20201114,1,1,0,0,0,0,600,57000,13,10800,10800,7800,7800,3000,4800,4800,3000,0,0,0,0,0,0,0,0,0,0,1,0,0,0,1,0,0,0,0,19000,0.333333333,0.010526316,17100,10700,24900,4300,0.37173913,0.232608696,0.541304348,0.093478261
20201115,1,0,1,0,0,0,700,63000,13,10800,10800,7800,7800,3000,4800,4800,3000,0,0,0,0,0,0,0,0,0,0,1,0,0,0,0,1,0,0,0,23000,0.365079365,0.011111111,20700,11000,25400,5900,0.45,0.239130435,0.552173913,0.12826087
20201116,1,0,0,0,0,0,1100,58000,13,10800,10800,7800,7800,3000,4800,4800,3000,0,0,0,0,0,0,0,0,0,0,1,0,0,1,0,0,0,0,0,16000,0.275862069,0.018965517,14400,13400,19700,10500,0.313043478,0.291304348,0.42826087,0.22826087
20201117,1,0,0,0,0,0,2600,45000,13,10800,10800,7800,7800,3000,4800,4800,3000,0,0,0,0,0,0,0,0,0,0,1,0,0,0,0,0,0,1,0,12000,0.266666667,0.057777778,10800,6000,16000,12200,0.234782609,0.130434783,0.347826087,0.265217391
20201118,1,0,0,0,0,0,2500,49000,13,10800,10800,7800,7800,3000,4800,4800,3000,0,0,0,0,0,0,0,0,0,0,1,0,0,0,0,0,0,0,1,17000,0.346938776,0.051020408,15300,8700,14100,10900,0.332608696,0.189130435,0.306521739,0.236956522
20201119,1,0,0,0,0,0,4300,60000,13,10800,10800,7800,7800,3000,4800,4800,3000,0,0,0,0,0,0,0,0,0,0,1,0,0,0,0,0,1,0,0,16000,0.266666667,0.071666667,14400,9100,21700,14800,0.313043478,0.197826087,0.47173913,0.32173913
20201120,1,0,0,0,0,0,2300,66000,13.5,10800,10800,7800,7800,3000,4800,4800,3000,0,0,0,0,0,0,0,0,0,0,1,0,1,0,0,0,0,0,0,18000,0.272727273,0.034848485,16200,13000,26600,10200,0.352173913,0.282608696,0.57826087,0.22173913
20201121,1,1,0,0,0,0,300,71000,13.5,10800,10800,7800,7800,3000,4800,4800,3000,0,0,0,0,0,0,0,0,0,0,1,0,0,0,1,0,0,0,0,22000,0.309859155,0.004225352,19800,14900,31700,4600,0.430434783,0.323913043,0.689130435,0.1
20201122,1,1,0,1,0,0,400,71000,13.5,10800,10800,7800,7800,3000,4800,4800,3000,0,0,0,0,0,0,0,0,0,0,1,0,0,0,0,1,0,0,0,19000,0.267605634,0.005633803,17100,12800,37600,3500,0.37173913,0.27826087,0.817391304,0.076086957
20201123,1,0,1,0,0,0,900,71000,13.5,10800,10800,7800,7800,3000,4800,4800,3000,0,0,0,0,0,0,0,0,0,0,1,0,0,1,0,0,0,0,0,24000,0.338028169,0.012676056,21600,14000,24800,10600,0.469565217,0.304347826,0.539130435,0.230434783
20201124,1,0,0,0,0,0,2100,46000,12,10800,10800,7800,7800,3000,4800,4800,3000,0,0,0,0,0,0,0,0,0,0,1,0,0,0,0,0,0,1,0,14000,0.304347826,0.045652174,12600,7700,13600,12100,0.273913043,0.167391304,0.295652174,0.263043478
20201125,1,0,0,0,0,0,3200,40000,12,10800,10800,7800,7800,3000,4800,4800,3000,0,0,0,0,0,0,0,0,0,0,1,0,0,0,0,0,0,0,1,11000,0.275,0.08,9900,5400,13400,11300,0.215217391,0.117391304,0.291304348,0.245652174
20201126,1,0,0,0,0,0,4400,42000,12,10800,10800,7800,7800,3000,4800,4800,3000,0,0,0,0,0,0,0,0,0,0,1,0,0,0,0,0,1,0,0,11000,0.261904762,0.104761905,9900,4900,14200,13000,0.215217391,0.106521739,0.308695652,0.282608696
20201127,1,0,0,0,0,0,4100,44000,12,10800,10800,7800,7800,3000,4800,4800,3000,0,0,0,0,0,0,0,0,0,0,1,0,1,0,0,0,0,0,0,12000,0.272727273,0.093181818,10800,7000,15800,10400,0.234782609,0.152173913,0.343478261,0.226086957
20201128,1,1,0,0,0,0,700,68000,13,10800,10800,7800,7800,3000,4800,4800,3000,0,0,0,0,0,0,0,0,0,0,1,0,0,0,1,0,0,0,0,26000,0.382352941,0.010294118,23400,14600,24600,5400,0.508695652,0.317391304,0.534782609,0.117391304
20201129,1,0,1,0,0,0,700,62000,13,10800,10800,7800,7800,3000,4800,4800,3000,0,0,0,0,0,0,0,0,0,0,1,0,0,0,0,1,0,0,0,27000,0.435483871,0.011290323,24300,14500,17800,5400,0.52826087,0.315217391,0.386956522,0.117391304
20201130,1,0,0,0,0,0,2700,45000,13,10800,10800,7800,7800,3000,4800,4800,3000,0,0,0,0,0,0,0,0,0,0,1,0,0,1,0,0,0,0,0,13000,0.288888889,0.06,11700,7200,14200,11900,0.254347826,0.156521739,0.308695652,0.258695652
20201201,1,0,0,0,0,0,5800,39000,12,10800,10800,7800,7800,3000,4800,4800,3000,0,0,0,0,0,0,0,0,0,0,0,1,0,0,0,0,0,1,0,9000,0.230769231,0.148717949,8100,5000,15700,10200,0.176086957,0.108695652,0.341304348,0.22173913
20201202,1,0,0,0,0,0,5600,47000,12,10800,10800,7800,7800,3000,4800,4800,3000,0,0,0,0,0,0,0,0,0,0,0,1,0,0,0,0,0,0,1,13000,0.276595745,0.119148936,11700,7000,16700,11600,0.254347826,0.152173913,0.363043478,0.252173913
20201203,1,0,0,0,0,0,9200,45000,12,10800,10800,7800,7800,3000,4800,4800,3000,0,0,0,0,0,0,0,0,0,0,0,1,0,0,0,0,1,0,0,10000,0.222222222,0.204444444,9000,4900,20700,10400,0.195652174,0.106521739,0.45,0.226086957
20201204,1,0,0,0,0,0,6000,43000,12,10800,10800,7800,7800,3000,4800,4800,3000,0,0,0,0,0,0,0,0,0,0,0,1,1,0,0,0,0,0,0,12000,0.279069767,0.139534884,10800,7000,16100,9100,0.234782609,0.152173913,0.35,0.197826087
20201205,1,1,0,1,0,0,600,62000,13,10800,10800,7800,7800,3000,4800,4800,3000,0,0,0,0,0,0,0,0,0,0,0,1,0,0,1,0,0,0,0,19000,0.306451613,0.009677419,17100,15200,26000,3700,0.37173913,0.330434783,0.565217391,0.080434783
20201206,1,0,1,1,0,0,800,57000,13,10800,10800,7800,7800,3000,4800,4800,3000,0,0,0,0,0,0,0,0,0,0,0,1,0,0,0,1,0,0,0,21000,0.368421053,0.014035088,18900,14200,19400,4500,0.410869565,0.308695652,0.42173913,0.097826087
20201207,1,0,0,0,0,0,2900,48000,13,10800,10800,7800,7800,3000,4800,4800,3000,0,0,0,0,0,0,0,0,0,0,0,1,0,1,0,0,0,0,0,14000,0.291666667,0.060416667,12600,6700,16900,11800,0.273913043,0.145652174,0.367391304,0.256521739
20201208,1,0,0,0,0,0,4900,40000,12,10800,10800,7800,7800,3000,4800,4800,3000,0,0,0,0,0,0,0,0,0,0,0,1,0,0,0,0,0,1,0,10000,0.25,0.1225,9000,5200,15800,10000,0.195652174,0.113043478,0.343478261,0.217391304
20201209,1,0,0,0,0,0,3500,47000,12,10800,10800,7800,7800,3000,4800,4800,3000,0,0,0,0,0,0,0,0,0,0,0,1,0,0,0,0,0,0,1,15000,0.319148936,0.074468085,13500,8600,14100,10800,0.293478261,0.186956522,0.306521739,0.234782609
20201210,1,0,0,0,0,0,5200,48000,12,10800,10800,7800,7800,3000,4800,4800,3000,0,0,0,0,0,0,0,0,0,0,0,1,0,0,0,0,1,0,0,13000,0.270833333,0.108333333,11700,7600,15600,13100,0.254347826,0.165217391,0.339130435,0.284782609
20201211,1,0,0,0,0,0,3100,44000,12,10800,10800,7800,7800,3000,4800,4800,3000,0,0,0,0,0,0,0,0,0,0,0,1,1,0,0,0,0,0,0,13000,0.295454545,0.070454545,11700,7400,15000,9900,0.254347826,0.160869565,0.326086957,0.215217391
20201212,1,1,0,1,0,0,800,64000,13,10800,10800,7800,7800,3000,4800,4800,3000,0,0,0,0,0,0,0,0,0,0,0,1,0,0,1,0,0,0,0,20000,0.3125,0.0125,18000,15000,26500,4500,0.391304348,0.326086957,0.576086957,0.097826087
20201213,1,0,1,1,0,0,500,57000,13,10800,10800,7800,7800,3000,4800,4800,3000,0,0,0,0,0,0,0,0,0,0,0,1,0,0,0,1,0,0,0,21000,0.368421053,0.00877193,18900,14100,20200,3800,0.410869565,0.306521739,0.439130435,0.082608696
20201214,1,0,0,0,0,0,1000,50000,13,10800,10800,7800,7800,3000,4800,4800,3000,0,0,0,0,0,0,0,0,0,0,0,1,0,1,0,0,0,0,0,16000,0.32,0.02,14400,8000,14400,13200,0.313043478,0.173913043,0.313043478,0.286956522
20201215,1,0,0,0,0,0,1400,49000,13,10800,10800,7800,7800,3000,4800,4800,3000,0,0,0,0,0,0,0,0,0,0,0,1,0,0,0,0,0,1,0,15000,0.306122449,0.028571429,13500,7000,13400,15100,0.293478261,0.152173913,0.291304348,0.32826087
20201216,1,0,0,0,0,0,1200,50000,13,10800,10800,7800,7800,3000,4800,4800,3000,0,0,0,0,0,0,0,0,0,0,0,1,0,0,0,0,0,0,1,16000,0.32,0.024,14400,9400,11600,14600,0.313043478,0.204347826,0.252173913,0.317391304
20201217,1,0,0,0,0,0,900,47000,13,10800,10800,7800,7800,3000,4800,4800,3000,0,0,0,0,0,0,0,0,0,0,0,1,0,0,0,0,1,0,0,14000,0.29787234,0.019148936,12600,6900,12800,14700,0.273913043,0.15,0.27826087,0.319565217
20201218,1,0,0,0,0,0,300,56000,13,10800,10800,7800,7800,3000,4800,4800,3000,0,0,0,0,0,0,0,0,0,0,0,1,1,0,0,0,0,0,0,20000,0.357142857,0.005357143,18000,10100,14800,13100,0.391304348,0.219565217,0.32173913,0.284782609
20201219,1,1,0,1,0,0,100,57000,13,10800,10800,7800,7800,3000,4800,4800,3000,0,0,0,0,0,0,0,0,0,0,0,1,0,0,1,0,0,0,0,13000,0.228070175,0.001754386,11700,12300,26300,6700,0.254347826,0.267391304,0.57173913,0.145652174
20201220,1,0,1,1,0,0,100,64000,13,10800,10800,7800,7800,3000,4800,4800,3000,0,0,0,0,0,0,0,0,0,0,0,1,0,0,0,1,0,0,0,20000,0.3125,0.0015625,18000,14800,23200,8000,0.391304348,0.32173913,0.504347826,0.173913043
20201221,1,0,0,0,0,0,100,59000,13,10800,10800,7800,7800,3000,4800,4800,3000,0,0,0,0,0,0,0,0,0,0,0,1,0,1,0,0,0,0,0,18000,0.305084746,0.001694915,16200,13400,17400,12000,0.352173913,0.291304348,0.37826087,0.260869565
20201222,1,0,0,0,0,0,100,58000,13,10800,10800,7800,7800,3000,4800,4800,3000,0,0,0,0,0,0,0,0,0,0,0,1,0,0,0,0,0,1,0,17000,0.293103448,0.001724138,15300,10500,18500,13700,0.332608696,0.22826087,0.402173913,0.297826087
20201223,1,0,0,1,0,0,100,54000,13,10800,10800,7800,7800,3000,4800,4800,3000,0,0,0,0,0,0,0,0,0,0,0,1,0,0,0,0,0,0,1,13000,0.240740741,0.001851852,11700,10300,22000,10000,0.254347826,0.223913043,0.47826087,0.217391304
20201224,1,0,0,1,0,0,100,58000,13.5,10800,10800,7800,7800,3000,4800,4800,3000,0,0,0,0,0,0,0,0,0,0,0,1,0,0,0,0,1,0,0,14000,0.24137931,0.001724138,12600,11100,21700,12600,0.273913043,0.241304348,0.47173913,0.273913043
20201225,1,0,0,1,1,0,100,62000,13.5,10800,10800,7800,7800,3000,4800,4800,3000,0,0,0,0,0,0,0,0,0,0,0,1,1,0,0,0,0,0,0,14000,0.225806452,0.001612903,12600,14200,24300,10900,0.273913043,0.308695652,0.52826087,0.236956522
20201226,1,1,0,1,1,0,100,62000,13.5,10800,10800,7800,7800,3000,4800,4800,3000,0,0,0,0,0,0,0,0,0,0,0,1,0,0,1,0,0,0,0,19000,0.306451613,0.001612903,17100,9100,26600,9200,0.37173913,0.197826087,0.57826087,0.2
20201227,1,0,1,1,1,0,100,58000,13.5,10800,10800,7800,7800,3000,4800,4800,3000,0,0,0,0,0,0,0,0,0,0,0,1,0,0,0,1,0,0,0,17000,0.293103448,0.001724138,15300,9100,22000,11600,0.332608696,0.197826087,0.47826087,0.252173913
20201228,1,0,0,1,1,0,100,51000,12.5,10800,10800,7800,7800,3000,4800,4800,3000,0,0,0,0,0,0,0,0,0,0,0,1,0,1,0,0,0,0,0,4000,0.078431373,0.001960784,3600,10300,24300,12800,0.07826087,0.223913043,0.52826087,0.27826087
20201229,1,0,0,1,1,0,100,51000,12.5,10800,10800,7800,7800,3000,4800,4800,3000,0,0,0,0,0,0,0,0,0,0,0,1,0,0,0,0,0,1,0,4000,0.078431373,0.001960784,3600,11000,27400,9000,0.07826087,0.239130435,0.595652174,0.195652174
20201230,1,0,0,1,1,0,100,52000,12.5,10800,10800,7800,7800,3000,4800,4800,3000,0,0,0,0,0,0,0,0,0,0,0,1,0,0,0,0,0,0,1,4000,0.076923077,0.001923077,3600,11200,26300,10900,0.07826087,0.243478261,0.57173913,0.236956522
20201231,1,0,0,1,1,0,100,27000,8.5,10800,10800,7800,7800,3000,4800,4800,3000,0,0,0,0,0,0,0,0,0,0,0,1,0,0,0,0,1,0,0,11000,0.407407407,0.003703704,"3,990","6,206","12,170","4,634",0.08673913,0.134913043,0.264565217,0.10073913
