date,current_demand_express4,current_demand_express7,current_demand_express3,current_prices_express4,current_prices_express7,current_prices_express3,current_revenue_express4,current_revenue_express7,current_revenue_express3,current_total_revenue,optimal_demand_express4,optimal_demand_express7,optimal_demand_express3,optimal_prices_express4,optimal_prices_express7,optimal_prices_express3,optimal_revenue_express4,optimal_revenue_express7,optimal_revenue_express3,optimal_total_revenue,time_stamp
20200101,5081.926455546383,2366.556031553887,980.8881214788383,7800,10800,4800,39639026.35326179,25558805.14078198,4708262.983098424,69906094.47714218,3817.745551284184,1424.4824882098867,511.30105462804727,13800.0,18800.0,10800.0,52684888.60772174,26780270.77834587,5522051.389982911,84987210.77605052,2020-01-24 10:25:52.681
20200102,6275.453359349176,2944.3172635120827,904.000039997693,7800,10800,4800,48948536.20292357,31798626.445930492,4339200.191988926,85086362.84084299,4622.644142889877,1636.919465095083,379.2376097775202,15800.0,21800.0,12800.0,73037777.45766005,35684844.33907281,4854241.405152258,113576863.20188512,2020-01-24 10:25:52.837
20200103,5894.622971809091,2745.9748222748917,900.2802038145845,7800,10800,4800,45978059.18011091,29656528.08056883,4321344.978310006,79955932.23898974,4485.275895283792,1544.2895404568917,420.99581892039294,14800.0,20800.0,11800.0,66382083.25020012,32121222.441503346,4967750.663260637,103471056.3549641,2020-01-24 10:25:52.962
20200104,5811.103540126305,2825.0499758855863,1059.0866465864433,7800,10800,4800,45326607.61298518,30510539.739564333,5083615.903614928,80920763.25616443,4401.756463601005,1623.3646940675862,495.25808542508054,14800.0,20800.0,11800.0,65145995.66129487,33765985.63660579,5844045.408015951,104756026.70591661,2020-01-24 10:25:53.093
20200105,4695.006947685113,2072.4214442873936,720.9755206352081,7800,10800,4800,36621054.191943884,22382151.59830385,3460682.499048999,62463888.28929674,3575.992215686013,1389.9596394173936,418.92363542295544,12800.0,16800.0,9800.0,45772700.36078097,23351321.942212213,4105451.6271449635,73229473.93013814,2020-01-24 10:25:53.261
20200106,3835.4302169010098,1683.7079397205193,0.0,7800,10800,0,29916355.691827875,18184045.74898161,0.0,48100401.44080949,3156.4695601777103,799.1602076995193,0.0,11800.0,17800.0,0.0,37246340.81009698,14225051.697051445,0.0,51471392.50714842,2020-01-24 10:25:53.314
20200107,2973.219516808409,1139.676370042434,0.0,7800,10800,0,23191112.231105592,12308504.796458287,0.0,35499617.02756388,2584.59120461131,774.3521149694343,0.0,9800.0,13800.0,0.0,25328993.805190835,10686059.186578194,0.0,36015052.99176903,2020-01-24 10:25:53.374
20200108,2916.791794918082,1105.4765390324533,0.0,7800,10800,0,22750976.00036104,11939146.621550495,0.0,34690122.62191153,2429.8675150500817,894.0515058344532,0.0,9800.0,12800.0,0.0,23812701.6474908,11443859.274681002,0.0,35256560.9221718,2020-01-24 10:25:53.414
20200109,2863.69588757334,1081.2516624721793,0.0,7800,10800,0,22336827.92307205,11677517.954699537,0.0,34014345.877771586,2718.52971531024,821.6399239981793,0.0,8800.0,12800.0,0.0,23923061.494730115,10516991.027176695,0.0,34440052.52190681,2020-01-24 10:25:53.448
20200110,3132.313730421194,1219.4013813604763,0.0,7800,10800,0,24432047.097285315,13169534.918693144,0.0,37601582.015978456,2743.685418224094,854.0771262874765,0.0,9800.0,13800.0,0.0,26888117.098596122,11786264.342767175,0.0,38674381.4413633,2020-01-24 10:25:53.485
20200111,3438.6479786618875,1542.3894508421688,0.0,7800,10800,0,26821454.233562723,16657806.069095423,0.0,43479260.30265815,3003.1494618725874,763.5542354201691,0.0,10800.0,16800.0,0.0,32434014.188223943,12827711.15505884,0.0,45261725.34328278,2020-01-24 10:25:53.536
20200112,4415.284896753316,2050.038246963377,0.0,7800,10800,0,34439222.19467587,22140413.06720447,0.0,56579635.26188034,3689.454035437817,751.9795545933774,0.0,12800.0,20800.0,0.0,47225011.65360405,15641174.73554225,0.0,62866186.389146306,2020-01-24 10:25:53.580
20200113,3677.3120571527697,1497.2689742580806,0.0,7800,10800,0,28683034.045791604,16170504.921987271,0.0,44853538.96777888,3241.813540363469,718.4337588360809,0.0,10800.0,16800.0,0.0,35011586.235925466,12069687.14844616,0.0,47081273.38437162,2020-01-24 10:25:53.615
20200114,2639.645408892401,987.1989830264745,0.0,7800,10800,0,20589234.189360727,10661749.016685924,0.0,31250983.20604665,2494.4792366293004,727.5872445524745,0.0,8800.0,12800.0,0.0,21951417.282337844,9313116.730271675,0.0,31264534.01260952,2020-01-24 10:25:53.650
20200115,2530.121779594673,928.7742751157521,0.0,7800,10800,0,19734949.88083845,10030762.171250122,0.0,29765712.052088574,2286.659639660673,823.0617585167522,0.0,8800.0,11800.0,0.0,20122604.82901392,9712128.750497676,0.0,29834733.579511598,2020-01-24 10:25:53.684
20200116,2588.926179373166,967.7674364897564,0.0,7800,10800,0,20193624.199110698,10451888.314089369,0.0,30645512.513200067,2345.4640394391663,862.0549198907565,0.0,8800.0,11800.0,0.0,20640083.547064662,10172248.054710926,0.0,30812331.601775587,2020-01-24 10:25:53.729
20200117,2699.541393216224,1032.1139993796787,0.0,7800,10800,0,21056422.86708655,11146831.19330053,0.0,32203254.06038708,2554.375220953124,772.5022609056784,0.0,8800.0,12800.0,0.0,22478501.94438749,9888028.939592684,0.0,32366530.883980177,2020-01-24 10:25:53.773
20200118,3167.6764896432846,1433.3102618425776,0.0,7800,10800,0,24707876.61921762,15479750.827899838,0.0,40187627.447117455,2975.6401127879844,760.187563019578,0.0,9800.0,15800.0,0.0,29161273.10532225,12010963.495709332,0.0,41172236.60103158,2020-01-24 10:25:53.813
20200119,2485.0798333880966,921.8555883482018,0.0,7800,10800,0,19383622.700427152,9956040.354160579,0.0,29339663.05458773,2241.617693454097,816.143071749202,0.0,8800.0,11800.0,0.0,19726235.702396054,9630488.246640584,0.0,29356723.949036635,2020-01-24 10:25:53.860
20200120,2814.364170531513,1103.086295337775,332.6150181075338,7800,10800,4800,21952040.5301458,11913331.98964797,1596552.0869161622,35461924.606709935,2570.9020305975127,997.373778738775,298.39031526035103,8800.0,11800.0,5800.0,22623937.869258113,11769010.589117544,1730663.828510036,36123612.28688569,2020-01-24 10:25:53.971
20200121,2842.7828163552963,1106.8391581250721,320.3094511361131,7800,10800,4800,22173705.96757131,11953862.90775078,1537485.365453343,35665054.24077543,2599.3206764212964,1001.1266415260723,287.35093998213534,8800.0,11800.0,5800.0,22874021.95250741,11813294.370007653,1666635.451896385,36353951.77441145,2020-01-24 10:25:54.083
20200122,2857.2934529527693,1120.7581478436728,332.5494397936395,7800,10800,4800,22286888.9330316,12104187.996711666,1596237.3110094697,35987314.240752734,2613.8313130187694,1015.0456312446731,298.3314846823799,8800.0,11800.0,5800.0,23001715.55456517,11977538.448687144,1730322.6111578033,36709576.61441012,2020-01-24 10:25:54.178
20200123,2795.645970524589,1082.5415728915063,288.54819335818377,7800,10800,4800,21806038.57009179,11691448.987228269,1385031.3281192821,34882518.885439344,2552.1838305905885,976.8290562925067,258.85778361371894,8800.0,11800.0,5800.0,22459217.70919718,11526582.86425158,1501375.14495957,35487175.71840833,2020-01-24 10:25:54.275
20200124,2805.2097426106648,1093.924281816825,317.60834485894236,7800,10800,4800,21880635.992363185,11814382.24362171,1524520.0553229232,35219538.291307814,2561.7476026766644,988.2117652178251,284.92776631372294,8800.0,11800.0,5800.0,22543378.90355465,11660898.829570336,1652581.044619593,35856858.77774458,2020-01-24 10:25:54.380
20200125,3547.2047694329294,1653.6084640868346,590.5811855969664,7800,10800,4800,27668197.20157685,17858971.412137814,2834789.690865439,48361958.30458011,2915.114317301829,1182.571692414835,426.39118130832054,10800.0,14800.0,7800.0,31483234.626859754,17502061.047739558,3325851.2142049004,52311146.88880421,2020-01-24 10:25:54.508
20200126,3138.6044916487326,1301.3819423144491,587.6933689162964,7800,10800,4800,24481115.034860115,14054924.976996051,2820928.170798223,41356968.18265439,2651.6802117807324,1089.9569091164494,472.9731947309643,9800.0,12800.0,6800.0,25986466.075451177,13951448.436690552,3216217.724170557,43154132.236312285,2020-01-24 10:25:54.579
20200127,2867.4600779389148,1127.3111722385165,348.25070755174823,7800,10800,4800,22366188.607923534,12174960.66017598,1671603.3962483916,36212752.66434791,2380.5357980709146,915.8861390405166,280.2707303330638,9800.0,12800.0,6800.0,23329250.821094964,11723342.579718612,1905840.9662648337,36958434.367078416,2020-01-24 10:25:54.659
20200128,2962.2795619672106,1178.8672707060273,350.7391154994435,7800,10800,4800,23105780.583344243,12731766.523625094,1683547.754397329,37521094.861366674,2475.355282099211,967.4422375080275,282.27339076631944,9800.0,12800.0,6800.0,24258481.764572266,12383260.640102752,1919459.057210972,38561201.461885996,2020-01-24 10:25:54.751
20200129,2966.2142292875487,1184.012539944324,359.6587516856616,7800,10800,4800,23136470.98844288,12787335.4313987,1726362.008091176,37650168.427932754,2479.289949419548,972.5875067463242,289.4518771096533,9800.0,12800.0,6800.0,24297041.504311573,12449120.08635295,1968272.7643456424,38714434.35501017,2020-01-24 10:25:54.835
20200130,2962.688906257971,1181.0879667914091,326.5338978168274,7800,10800,4800,23108973.468812175,12755750.041347219,1567362.7095207714,37432086.21968017,2475.764626389971,969.6629335934093,262.79313160052993,9800.0,12800.0,6800.0,24262493.338621717,12411685.549995638,1786993.2948836035,38461172.18350095,2020-01-24 10:25:54.936
20200131,2912.299633486803,1155.3462718942997,343.96223054131605,7800,10800,4800,22715937.141197063,12477739.736458436,1651018.706598317,36844695.58425382,2425.3753536188033,943.9212386962995,276.81938175668864,9800.0,12800.0,6800.0,23768678.46546427,12082191.855312634,1882371.7959454828,37733242.11672239,2020-01-24 10:25:55.017
20200201,3332.0127906778985,1533.3734733984202,748.3057802976723,7800,10800,4800,25989699.76728761,16560433.512702938,3591867.745428827,46142001.02541938,2601.626370875899,1216.2359236014206,540.2660860563113,10800.0,13800.0,7800.0,28097564.805459708,16784055.745699603,4214075.471239229,49095696.02239854,2020-01-24 10:25:55.097
20200202,2759.2920474777716,1090.3548164309243,676.7720363534585,7800,10800,4800,21522477.970326617,11775832.017453982,3248505.7744966005,36546815.7622772,2272.3677676097714,878.9297832329244,544.6633381774056,9800.0,12800.0,6800.0,22269204.12257576,11250301.225381432,3703710.6996063585,37223216.04756355,2020-01-24 10:25:55.159
20200203,3033.6272646829984,1229.2067871794839,566.7215778031568,7800,10800,4800,23662292.664527386,13275433.301538426,2720263.573455153,39657989.539520964,2546.7029848149987,1017.7817539814841,456.0951839065392,9800.0,12800.0,6800.0,24957689.251186986,13027606.450962998,3101447.2505644667,41086742.95271445,2020-01-24 10:25:55.270
20200204,2921.044717179876,1162.2875896704527,495.73831776042897,7800,10800,4800,22784148.794003032,12552705.968440888,2379543.925250059,37716398.68769398,2434.120437311876,950.8625564724528,398.9681495540221,9800.0,12800.0,6800.0,23854380.28565638,12171040.722847395,2712983.41696735,38738404.42547113,2020-01-24 10:25:55.369
20200205,3137.9311333804344,1283.6147508076315,588.0297210472531,7800,10800,4800,24475862.840367388,13863039.30872242,2822542.661026815,41161444.81011662,2164.0825736444344,860.7646844116314,380.8647266745665,11800.0,14800.0,8800.0,25536174.369004328,12739317.329292145,3351609.5947361854,41627101.29303266,2020-01-24 10:25:55.426
20200206,3083.0043403888594,1257.5574712026996,514.7719374886058,7800,10800,4800,24047433.855033103,13581620.688989155,2470905.299945308,40099959.84396757,2352.617920586859,940.4199214057002,371.6579868833312,10800.0,13800.0,7800.0,25408273.542338077,12977794.915398663,2898932.2976899836,41285000.75542672,2020-01-24 10:25:55.483
20200207,3082.731444173989,1256.077007032237,562.619839849766,7800,10800,4800,24045305.264557116,13565631.675948158,2700575.231278877,40311512.17178415,2108.8828844379887,833.2269406362371,364.4068383898067,11800.0,14800.0,8800.0,24884818.036368266,12331758.72141631,3206780.177830299,40423356.93561488,2020-01-24 10:25:55.570
20200208,3876.3778053296164,1806.5104989907875,881.1823018220243,7800,10800,4800,30235746.88157101,19510313.389100503,4229675.048745717,53975735.31941723,1928.680685857616,960.8103661987875,369.6653264772983,15800.0,18800.0,12800.0,30473154.836550333,18063234.884537205,4731716.178909418,53268105.89999696,2020-01-24 10:25:55.660
20200209,3520.4070302540485,1484.0787712455121,900.3403270950789,7800,10800,4800,27459174.835981578,16028050.729451532,4321633.570056379,47808859.135489486,1572.7099107820484,638.3786384535122,377.7023213790121,15800.0,18800.0,12800.0,24848816.590356365,12001518.40292603,4834589.713651355,41684924.70693375,2020-01-24 10:25:55.747
20200210,3575.2633176894406,1487.5391737917485,673.1570685985577,7800,10800,4800,27887053.877977636,16065423.076950883,3231153.929273077,47183630.88420159,2357.9526180194407,958.9765907967483,391.13867019994325,12800.0,15800.0,9800.0,30181793.51064884,15151830.134588623,3833158.967959444,49166782.6131969,2020-01-24 10:25:55.822
20200211,3461.2726737270596,1451.3957582317428,851.9892093692287,7800,10800,4800,26997926.855071064,15675074.188902821,4089548.2049722974,46762549.24894618,1757.0376941890595,711.4081420387428,398.413619881848,14800.0,17800.0,11800.0,26004157.87399808,12663064.928289622,4701280.714605806,43368503.516893506,2020-01-24 10:25:55.907
20200212,3577.037142677762,1497.162188686325,648.0084409206875,7800,10800,4800,27900889.712886542,16169351.637812309,3110440.5164193,47180681.86711815,2359.7264430077616,968.5996056913248,376.5260318631671,12800.0,15800.0,9800.0,30204498.470499348,15303873.76992293,3689955.1122590373,49198327.35268132,2020-01-24 10:25:55.992
20200213,3083.880089378159,1254.208250161635,517.2893475045512,7800,10800,4800,24054264.69714964,13545449.10174566,2482988.868021846,40082702.666917145,2353.493669576159,937.0707003646355,373.47552096114197,10800.0,13800.0,7800.0,25417731.631422516,12931575.66503197,2913109.0634969072,41262416.3599514,2020-01-24 10:25:56.047
20200214,2971.5704379641575,1188.769516141975,522.9238301739974,7800,10800,4800,23178249.41612043,12838710.77433333,2510034.384835188,38526994.57528895,2241.184018162157,871.6319663449751,377.54353697668427,10800.0,13800.0,7800.0,24204787.396151293,12028521.135560656,2944839.5884181373,39178148.12013009,2020-01-24 10:25:56.149
20200215,3386.2002826930548,1563.5202056187504,776.1273670346926,7800,10800,4800,26412362.20500583,16886018.220682506,3725411.3617665246,47023791.78745486,1681.9653031550542,823.532589425751,362.93853301098824,14800.0,17800.0,11800.0,24893086.4866948,14658880.091778368,4282674.689529661,43834641.26800282,2020-01-24 10:25:56.254
20200216,2868.212823875312,1153.6092088720823,725.860280469402,7800,10800,4800,22372060.026227433,12458979.45581849,3484129.3462531297,38315168.828299046,1163.9778443373118,413.62159267908237,339.43225887141466,14800.0,17800.0,11800.0,17226872.096192215,7362464.349687666,4005300.654682693,28594637.100562572,2020-01-24 10:25:56.352
20200217,3467.707022114645,1431.687100840681,627.8779627014932,7800,10800,4800,27048114.77249423,15462220.689079355,3013814.220967167,45524149.68254075,2250.396322444645,903.1245178456809,364.8291949012713,12800.0,15800.0,9800.0,28805072.92729146,14269367.381961757,3575326.110032459,46649766.41928568,2020-01-24 10:25:56.451
20200218,3243.9634683388203,1297.4604121008415,511.80989797823605,7800,10800,4800,25302915.0530428,14012572.450689089,2456687.510295533,41772175.014027424,2026.652768668821,768.8978291058414,297.3877156295008,12800.0,15800.0,9800.0,25941155.43896091,12148585.699872294,2914399.613169108,41004140.752002314,2020-01-24 10:25:56.520
20200219,3409.4484146400373,1395.6548671264711,585.373981786961,7800,10800,4800,26593697.63419229,15073072.564965889,2809795.112577413,44476565.31173559,2192.1377149700375,867.0922841314712,340.1322090882502,12800.0,15800.0,9800.0,28059362.751616478,13700058.089277245,3333295.649064852,45092716.48995858,2020-01-24 10:25:56.613
20200220,3403.6828617983,1388.677195524491,531.1685851494457,7800,10800,4800,26548726.32202674,14997713.711664503,2549609.208717339,44096049.24240858,2429.8343020622997,965.8271291284912,344.0359743054604,11800.0,14800.0,8800.0,28672044.764335137,14294241.511101669,3027516.5738880513,45993802.84932485,2020-01-24 10:25:56.678
20200221,3398.1902049830196,1383.1799870714144,576.8309339611706,7800,10800,4800,26505883.598867554,14938343.860371275,2768788.4830136187,44213015.94225244,2180.8795053130198,854.6174040764145,335.1682615611286,12800.0,15800.0,9800.0,27915257.66800665,13502954.984407349,3284648.9632990602,44702861.61571306,2020-01-24 10:25:56.752
20200222,4685.676564589154,2197.8109807461333,1188.9808155768033,7800,10800,4800,36548277.203795396,23736358.592058238,5707107.914768656,65991743.71062229,2494.5173051831534,1246.3983313551332,447.46664436581915,16800.0,19800.0,13800.0,41907890.72707698,24678686.96083164,6175039.692248304,72761617.38015692,2020-01-24 10:25:56.859
20200223,4797.872094936312,2278.830939827346,1152.5844597729986,7800,10800,4800,37423402.34050324,24611374.150135335,5532405.406910393,67567181.89754896,2948.4709431352126,1279.2315851603455,483.5214117823954,15800.0,19800.0,12800.0,46585840.90153636,25328785.386174843,6189074.070814661,78103700.35852586,2020-01-24 10:25:56.954
20200224,3843.052885260579,1617.7711298458275,964.3697174614556,7800,10800,4800,29975812.505032517,17471928.202334937,4628974.643814987,52076715.35118244,1651.893625854579,666.3584804548276,362.9354450022377,16800.0,19800.0,13800.0,27751812.91435693,13193897.913005587,5008509.141030881,45954219.96839339,2020-01-24 10:25:57.055
20200225,3078.796776853641,1250.9317377939403,551.1292328077005,7800,10800,4800,24014614.859458398,13510062.768174555,2645420.3174769627,40170097.94510992,2104.9482171176405,828.0816713979405,356.96441370656623,11800.0,14800.0,8800.0,24838388.96198816,12255608.73668952,3141286.840617783,40235284.53929546,2020-01-24 10:25:57.126
20200226,2920.6353728892163,1160.06689358511,507.5672264006109,7800,10800,4800,22780955.908535887,12528722.450719187,2436322.6867229324,37746001.04597801,1703.3246732192167,631.5043105901102,294.92250654773,12800.0,15800.0,9800.0,21802555.817205973,9977768.107323742,2890240.564167754,34670564.48869747,2020-01-24 10:25:57.194
20200227,2750.340010215372,1060.0763900216632,404.8396165483739,7800,10800,4800,21452652.0796799,11448825.012233963,1943230.1594321947,34844707.25134606,2263.4157303473717,848.6513568236633,325.8132504466197,9800.0,12800.0,6800.0,22181474.157404244,10862737.36734289,2215530.1030370137,35259741.62778415,2020-01-24 10:25:57.286
20200228,3066.91338741281,1226.9650859738222,560.7022867681798,7800,10800,4800,23921924.421819918,13251222.92851728,2691370.9764872626,39864518.326824464,2093.0648276768106,804.1150195778223,363.1648461840358,11800.0,14800.0,8800.0,24698164.966586366,11900902.28975177,3195850.646419515,39794917.90275765,2020-01-24 10:25:57.402
20200229,4091.490396542293,1918.214645233546,1000.6896194812073,7800,10800,4800,31913625.093029886,20716718.1685223,4803310.173509795,57433653.43506198,1656.8689972022937,861.0894792435467,337.8532363471772,17800.0,20800.0,14800.0,29492268.15020083,17910661.16826577,5000227.897938223,52403157.216404825,2020-01-24 10:25:57.527
20200301,3248.2985978381107,1318.8924093565072,1011.4327158599025,7800,10800,4800,25336729.063137263,14244038.021050278,4854877.036127532,44435644.12031507,813.6771984981111,261.7672433665074,341.48032491617175,17800.0,20800.0,14800.0,14483454.133266378,5444758.662023353,5053908.808759342,24982121.604049075,2020-01-24 10:25:57.652
20200302,3405.786643471688,1391.990061718091,781.2771665436397,7800,10800,4800,26565135.819079164,15033492.666555384,3750130.3994094706,45348758.88504402,1701.551663933688,652.0024455250913,365.34672109771805,14800.0,17800.0,11800.0,25182964.62621858,11605643.530346625,4311091.308953073,41099699.46551828,2020-01-24 10:25:57.787
20200303,3620.1028731745455,1515.5742731070245,839.5058774607121,7800,10800,4800,28236802.410761453,16368202.149555864,4029628.211811418,48634632.77212873,1672.4057537025456,669.8741403150248,352.1816241990352,15800.0,18800.0,12800.0,26424010.90850022,12593633.837922465,4507924.789747651,43525569.53617033,2020-01-24 10:25:57.935
20200304,3509.95406409301,1445.657793431241,809.0323342326774,7800,10800,4800,27377641.69992548,15613104.169057405,3883355.2043168517,46874101.073299736,1562.25694462101,599.9576606392409,339.39764943805915,15800.0,18800.0,12800.0,24683659.72501196,11279204.020017728,4344289.912807157,40307153.65783685,2020-01-24 10:25:58.077
20200305,3597.3135576457425,1489.1440488264875,767.4104941421259,7800,10800,4800,28059045.74963679,16082755.727326065,3683570.3718822044,47825371.848845065,1893.0785781077425,749.1564326334875,358.8622831653492,14800.0,17800.0,11800.0,28017562.955994587,13334984.500876078,4234574.94135112,45587122.39822179,2020-01-24 10:25:58.210
20200306,3714.979417799137,1559.3397593843051,898.5527862432245,7800,10800,4800,28976839.45883327,16840869.401350494,4313053.373967478,50130762.23415124,1523.8201583931366,607.927109993305,338.1655908810924,16800.0,19800.0,13800.0,25600178.661004696,12036956.777867438,4666685.154159075,42303820.59303121,2020-01-24 10:25:58.345
20200307,4630.53924858032,2199.631318148831,1573.3345292731417,7800,10800,4800,36118206.1389265,23756018.236007374,7552005.74051108,67426230.11544494,1222.0692895043203,719.6560857628308,344.04974339657747,21800.0,24800.0,18800.0,26641110.51119418,17847470.926918205,6468135.175855656,50956716.613968045,2020-01-24 10:25:58.490
20200308,3841.125597726641,1628.2351190879494,1297.0288879767006,7800,10800,4800,29960779.6622678,17584939.286149856,6225738.662288163,53771457.61070582,919.5799185186406,359.6849198999497,352.42286340277764,19800.0,22800.0,16800.0,18207682.386669084,8200816.173718853,5920704.105166664,32329202.665554605,2020-01-24 10:25:58.642
20200309,4102.86045146113,1763.531347267833,1063.2505383321165,7800,10800,4800,32002311.521396812,19046138.550492596,5103602.5839941595,56152052.655883566,1668.23905212113,706.4061812778333,358.975079215489,17800.0,20800.0,14800.0,29694655.127756115,14693248.570578933,5312831.172389237,49700734.87072429,2020-01-24 10:25:58.775
20200310,4265.286479494293,1853.231312354686,1086.6372905708467,7800,10800,4800,33269234.540055487,20014898.17343061,5215858.994740064,58499991.70822616,1830.6650801542942,796.1061463646862,366.8709240185968,17800.0,20800.0,14800.0,32585838.426746435,16559007.844385473,5429689.675475232,54574535.94660714,2020-01-24 10:25:58.918
20200311,4272.746469907084,1861.3011550864435,1118.8822408479975,7800,10800,4800,33327422.465275258,20102052.47493359,5370634.7560703885,58800109.69627924,1594.6629306330842,698.4634724974435,338.8878029886954,18800.0,21800.0,15800.0,29979663.095901985,15226503.700444268,5354427.287221387,50560594.08356764,2020-01-24 10:25:59.046
20200312,4541.307252158986,2007.2414861650882,1143.7836209469835,7800,10800,4800,35422196.56684009,21678208.050582953,5490161.380545521,62590565.99796856,1863.2237128849852,844.4038035760885,346.42994968210974,18800.0,21800.0,15800.0,35028605.80223772,18408002.91795873,5473593.204977334,58910201.92517378,2020-01-24 10:25:59.174
20200313,4327.673262836004,1887.3584343509074,1147.0907842807176,7800,10800,4800,33755851.45012083,20383471.0909898,5506035.764547444,59645358.30565807,1649.5897235620048,724.5207517619078,347.43162552910906,18800.0,21800.0,15800.0,31012286.80296569,15794552.38840959,5489419.683359923,52296258.8747352,2020-01-24 10:25:59.306
20200314,5176.945671771042,2446.7231290973705,1692.909116000496,7800,10800,4800,40380176.239814125,26424609.794251602,8125963.75680238,74930749.7908681,2255.399992563041,1178.1729299093704,459.98966073319826,19800.0,22800.0,16800.0,44656919.852748215,26862342.801933646,7727826.300317731,79247088.9549996,2020-01-24 10:25:59.472
20200315,4655.547010864351,2018.306333454987,1580.8488454775365,7800,10800,4800,36313266.68474194,21797708.40131386,7588074.458292175,65699049.54434797,1977.4634715903514,855.4686508659872,478.80855781129344,18800.0,21800.0,15800.0,37176313.26589861,18649216.58887852,7565175.213418436,63390705.06819557,2020-01-24 10:25:59.640
20200316,5364.416688457039,2412.0446308392893,1544.7097625444462,7800,10800,4800,41842450.1699649,26050082.013064325,7414606.860213342,75307139.04324257,2686.333149183038,1249.206948250289,467.8627281519191,18800.0,21800.0,15800.0,50503063.20464112,27232711.471856304,7392231.104800322,85128005.78129776,2020-01-24 10:25:59.772
20200317,4929.961615612942,2165.689148649555,1243.409511319793,7800,10800,4800,38453700.60178095,23389442.805415194,5968365.654335006,67811509.06153116,2738.802356206942,1214.2764992585548,467.95059627004605,16800.0,19800.0,13800.0,46011879.584276624,24042674.685319386,6457718.228526635,76512272.49812265,2020-01-24 10:25:59.901
20200318,5200.489731587887,2314.2021146878938,1416.4874519454243,7800,10800,4800,40563819.90638552,24993382.838629253,6799139.769338036,72356342.51435281,2765.8683322478873,1257.0769486978938,478.2350696642912,17800.0,20800.0,14800.0,49232456.31401239,26147200.532916192,7077879.03103151,82457535.87796009,2020-01-24 10:26:00.056
20200319,4983.603315387336,2192.874953550715,1187.3603854733879,7800,10800,4800,38872105.86002122,23683049.498347722,5699329.850272262,68254485.2086412,2792.4440559813356,1241.462304159715,446.85680406284257,16800.0,19800.0,13800.0,46913060.14048644,24580953.622362357,6166623.896067227,77660637.65891603,2020-01-24 10:26:00.194
20200320,5511.132682034271,2791.9334617091,1487.7928706501607,7800,10800,4800,42986834.919867314,30152881.386458278,7141405.779120771,80281122.08544636,2833.049142760271,1629.0957791201,450.6237017889831,18800.0,21800.0,15800.0,53261323.883893095,35514287.984818175,7119854.4882659335,95895466.3569772,2020-01-24 10:26:00.331
20200321,5289.214701302918,2622.390482645244,1402.2112747745766,7800,10800,4800,41255874.67016276,28321817.212568633,6730614.118917968,76308306.00164936,2952.8892696338185,1411.366094780244,473.4151409212139,17800.0,21800.0,14800.0,52561428.99948197,30767780.86620932,7006544.085633965,90335753.95132525,2020-01-24 10:26:00.463
20200322,4882.876980340716,2290.5385162986686,1346.726419344056,7800,10800,4800,38086440.44665758,24737815.976025622,6464286.812851469,69288543.23553468,2448.2555810007166,1233.4133503086694,454.68232146299357,17800.0,20800.0,14800.0,43578949.34181275,25654997.68642032,6729298.357652305,75963245.38588539,2020-01-24 10:26:00.622
20200323,5701.6796313959085,2744.9222169979057,1375.5586705625897,7800,10800,4800,44473101.124888085,29645159.943577383,6602681.618700431,80720942.6871659,3365.354199726809,1533.897829132906,464.4166778465509,17800.0,21800.0,14800.0,59903304.7551372,33438972.675097354,6873366.832128953,100215644.26236351,2020-01-24 10:26:00.781
20200324,6447.430177135704,3209.09870705738,1589.5671925398667,7800,10800,4800,50289955.381658494,34658266.03621971,7629922.52419136,92578143.94206958,3965.9385732035043,1738.4625807183797,481.4491766126132,18800.0,23800.0,15800.0,74559645.17622589,41375409.421097435,7606896.990479289,123541951.58780262,2020-01-24 10:26:01.003
20200325,5736.170376757621,2780.1795904005958,1248.1267390293356,7800,10800,4800,44742128.938709445,30025939.576326434,5991008.347340811,80759076.86237669,3643.3070850225213,1674.867719134596,469.7258999807914,16800.0,20800.0,13800.0,61207559.02837836,34837248.557999596,6482217.419734921,102527025.00611287,2020-01-24 10:26:01.201
20200326,5792.541038051879,2822.1700336008853,1159.0096921869708,7800,10800,4800,45181820.096804656,30479436.36288956,5563246.52249746,81224502.98219168,3699.677746316779,1716.858162334885,436.18717052114135,16800.0,20800.0,13800.0,62154586.13812189,35710649.77656561,6019382.953191751,103884618.86787926,2020-01-24 10:26:01.378
20200327,5631.400103299107,2731.341543558467,1174.2384365862777,7800,10800,4800,43924920.80573304,29498488.670431443,5636344.495614133,79059753.97177862,3538.536811564007,1626.029672292467,441.9184279686863,16800.0,20800.0,13800.0,59447418.43427532,33821417.18368331,6098474.30596787,99367309.9239265,2020-01-24 10:26:01.558
20200328,5766.131568639057,2939.1461777962354,1482.9647825583302,7800,10800,4800,44975826.23538464,31742778.720199343,7118230.956279985,83836835.91186397,3186.3439970359573,1622.4092733322354,449.16136723191994,18800.0,22800.0,15800.0,59903267.14427599,36990931.43197497,7096749.602264335,103990948.1785153,2020-01-24 10:26:01.714
20200329,5084.080704750636,2430.6524323022,1265.7380183404196,7800,10800,4800,39655829.49705496,26251046.26886376,6075542.488034014,71982418.25395273,2892.9214453446357,1479.2397829111992,476.35381184705386,16800.0,19800.0,13800.0,48601080.28178988,29288947.701641746,6573682.603489343,84463710.58692096,2020-01-24 10:26:01.843
20200330,5630.581414843115,2726.9001520687166,1221.5770806968337,7800,10800,4800,43918535.0357763,29450521.64234214,5863569.987344801,79232626.66546324,3537.718123108016,1621.5882808027163,459.7340764227803,16800.0,20800.0,13800.0,59433664.46821467,33729036.2406965,6344330.254634368,99507030.96354553,2020-01-24 10:26:02.019
20200331,5576.666818979727,2698.2338836782246,1124.1771474321697,7800,10800,4800,43498001.18804187,29140925.943724826,5396050.3076744145,78034977.43944111,3825.561634849527,1544.7353071362245,471.6042428048731,15800.0,20800.0,12800.0,60443873.830622524,32130494.388433468,6036534.307902375,98610902.52695838,2020-01-24 10:26:02.199
